38939,Cesium,Cs,55
40727,Francium,Fr,87
41771,Rubidium,Rb,37
43407,Potassium,K,19
49,Lawrencium,Lr,103
51391,Sodium,Na,11
517,Actinium,Ac,89
52117,Barium,Ba,56
52784,Radium,Ra,88
53917,Lithium,Li,3
54259,Lutetium,Lu,71
5473,Praseodymium,Pr,59
5525,Neodymium,Nd,60
55387,Cerium,Ce,58
55769,Lanthanum,La,57
5582,Promethium,Pm,61
56437,Samarium,Sm,62
56704,Europium,Eu,63
56949,Sontium,Sr,38
57864,Indium,In,49
58638,Terbium,Tb,65
589,Protactinium,Pa,91
59389,Dysprosium,Dy,66
59738,Americium,Am,95
59858,Aluminum,Al,13
59915,Curium,Cm,96
59993,Gallium,Ga,31
60215,Holmium,Ho,67
60262,Plutonium,Pu,94
61077,Erbium,Er,68
61082,Thallium,Tl,81
61132,Calcium,Ca,20
61501,Gadolinium,Gd,64
61843,Thulium,Tm,69
61941,Uranium,U,92
61979,Berkelium,Bk,97
62173,Ytium,Y,39
62542,Ytterbium,Yb,70
62657,Neptunium,Np,93
62817,Californium,Cf,98
63067,Thorium,Th,90
642,Einsteinium,Es,99
65,Fermium,Fm,100
65615,Scandium,Sc,21
658,Mendelevium,Md,101
66339,Zirconium,Zr,40
665,Nobelium,No,102
67462,Vanadium,V,23
67589,Niobium,Nb,41
67665,Chromium,Cr,24
68251,Hafnium,Hf,72
68281,Titanium,Ti,22
70924,Molybdenum,Mo,42
72800,Technetium,Tc,43
72856,Bismuth,Bi,83
73439,Tin,Sn,50
73605,Ruthenium,Ru,44
74167,Lead,Pb,82
74340,Manganese,Mn,25
74589,Rhodium,Rh,45
75496,Tantalum,Ta,73
75762,Silver,Ag,47
76398,Nickel,Ni,28
76462,Magnesium,Mg,12
77264,Copper,Cu,29
78335,Rhenium,Re,75
7864,Tungsten,W,74
78810,Cobalt,Co,27
78994,Germanium,Ge,32
79024,Iron,Fe,26
81517,Silicon,Si,14
82980,Boron,B,5
83369,Palladium,Pd,46
8417,Polonium,Po,84
84382,Osmium,Os,76
86084,Antimony,Sb,51
89587,Platinum,Pt,78
8967,Iridium,Ir,77
89938,Cadmium,Cd,48
90096,Tellurium,Te,52
92255,Gold,Au,79
93,Astatine,At,85
93227,Beryllium,Be,4
93942,Zinc,Zn,30
97524,Selenium,Se,34
97886,Arsenic,As,33
103600,Sulfur,S,16
104375,Mercury,Hg,80
104513,Iodine,I,53
104867,Phosphorus,P,15
107485,Radon,Rn,86
112603,Carbon,C,6
118138,Bromine,Br,35
121298,Xenon,Xe,54
129676,Chlorine,Cl,17
135984,Hydrogen,H,1
136181,Oxygen,O,8
139996,Krypton,Kr,36
145341,Niogen,N,7
157596,Argon,Ar,18
174228,Fluorine,F,9
215645,Neon,Ne,10
245874,Helium,He,2
