%!PS-Adobe-3.0 EPSF-3.0
%%Creator: cairo 1.15.10 (http://cairographics.org)
%%CreationDate: Thu May  7 18:01:56 2020
%%Pages: 1
%%DocumentData: Clean7Bit
%%LanguageLevel: 2
%%BoundingBox: 82 717 285 788
%%EndComments
%%BeginProlog
50 dict begin
/q { gsave } bind def
/Q { grestore } bind def
/cm { 6 array astore concat } bind def
/w { setlinewidth } bind def
/J { setlinecap } bind def
/j { setlinejoin } bind def
/M { setmiterlimit } bind def
/d { setdash } bind def
/m { moveto } bind def
/l { lineto } bind def
/c { curveto } bind def
/h { closepath } bind def
/re { exch dup neg 3 1 roll 5 3 roll moveto 0 rlineto
      0 exch rlineto 0 rlineto closepath } bind def
/S { stroke } bind def
/f { fill } bind def
/f* { eofill } bind def
/n { newpath } bind def
/W { clip } bind def
/W* { eoclip } bind def
/BT { } bind def
/ET { } bind def
/BDC { mark 3 1 roll /BDC pdfmark } bind def
/EMC { mark /EMC pdfmark } bind def
/cairo_store_point { /cairo_point_y exch def /cairo_point_x exch def } def
/Tj { show currentpoint cairo_store_point } bind def
/TJ {
  {
    dup
    type /stringtype eq
    { show } { -0.001 mul 0 cairo_font_matrix dtransform rmoveto } ifelse
  } forall
  currentpoint cairo_store_point
} bind def
/cairo_selectfont { cairo_font_matrix aload pop pop pop 0 0 6 array astore
    cairo_font exch selectfont cairo_point_x cairo_point_y moveto } bind def
/Tf { pop /cairo_font exch def /cairo_font_matrix where
      { pop cairo_selectfont } if } bind def
/Td { matrix translate cairo_font_matrix matrix concatmatrix dup
      /cairo_font_matrix exch def dup 4 get exch 5 get cairo_store_point
      /cairo_font where { pop cairo_selectfont } if } bind def
/Tm { 2 copy 8 2 roll 6 array astore /cairo_font_matrix exch def
      cairo_store_point /cairo_font where { pop cairo_selectfont } if } bind def
/g { setgray } bind def
/rg { setrgbcolor } bind def
/d1 { setcachedevice } bind def
/cairo_data_source {
  CairoDataIndex CairoData length lt
    { CairoData CairoDataIndex get /CairoDataIndex CairoDataIndex 1 add def }
    { () } ifelse
} def
/cairo_flush_ascii85_file { cairo_ascii85_file status { cairo_ascii85_file flushfile } if } def
/cairo_image { image cairo_flush_ascii85_file } def
/cairo_imagemask { imagemask cairo_flush_ascii85_file } def
%%EndProlog
%%BeginSetup
%%EndSetup
%%Page: 1 1
%%BeginPageSetup
%%PageBoundingBox: 82 717 285 788
%%EndPageSetup
q 82 717 203 71 rectclip
1 0 0 -1 0 842 cm q
0 g
168.301 74.027 m 169.086 73.266 l 170.238 72.246 170.684 71.844 170.684
 71.105 c 170.684 70.258 170.02 69.668 169.117 69.668 c 168.277 69.668 167.73
 70.352 167.73 71.008 c 167.73 71.422 168.102 71.422 168.121 71.422 c 168.25
 71.422 168.508 71.332 168.508 71.031 c 168.508 70.836 168.375 70.645 168.113
 70.645 c 168.059 70.645 168.039 70.645 168.02 70.652 c 168.191 70.172 168.586
 69.898 169.02 69.898 c 169.691 69.898 170.012 70.5 170.012 71.105 c 170.012
 71.695 169.641 72.281 169.234 72.742 c 167.812 74.324 l 167.73 74.406 167.73
 74.422 167.73 74.598 c 170.477 74.598 l 170.684 73.309 l 170.5 73.309 l
 170.461 73.531 170.41 73.859 170.336 73.969 c 170.285 74.027 169.797 74.027
 169.633 74.027 c h
168.301 74.027 m f*
172.34 71.816 m 172.34 71.328 l 171.277 71.406 l 171.277 71.637 l 171.801
 71.637 171.855 71.684 171.855 72.008 c 171.855 75.473 l 171.855 75.809 
171.773 75.809 171.277 75.809 c 171.277 76.035 l 171.527 76.027 171.914 
76.012 172.105 76.012 c 172.305 76.012 172.684 76.027 172.945 76.035 c 172.945
 75.809 l 172.445 75.809 172.363 75.809 172.363 75.473 c 172.363 74.16 l
 172.469 74.066 l 172.363 73.91 172.363 73.902 172.363 73.758 c 172.363 
72.102 l 172.578 71.727 172.945 71.512 173.32 71.512 c 173.859 71.512 174.312
 72.164 174.312 73 c 174.312 73.895 173.793 74.516 173.246 74.516 c 172.949
 74.516 172.668 74.367 172.469 74.066 c 172.363 74.16 l 172.402 74.281 172.715
 74.68 173.273 74.68 c 174.156 74.68 174.926 73.957 174.926 73 c 174.926
 72.059 174.207 71.328 173.379 71.328 c 172.801 71.328 172.492 71.652 172.34
 71.816 c h
172.34 71.816 m f*
1 g
177.164 69.449 7.09 7.086 re f
0 g
0.751181 w
0 J
0 j
[] 0.0 d
4 M q 1 0 0 1 0 0 cm
177.164 69.449 7.09 7.086 re S Q
1 g
184.254 69.449 7.086 7.086 re f
0 g
q 1 0 0 1 0 0 cm
184.254 69.449 7.086 7.086 re S Q
1 g
191.34 69.449 7.086 7.086 re f
0 g
q 1 0 0 1 0 0 cm
191.34 69.449 7.086 7.086 re S Q
1 g
184.254 83.621 7.086 7.086 re f
0 g
q 1 0 0 1 0 0 cm
184.254 83.621 7.086 7.086 re S Q
168.043 89.598 m 168.828 88.836 l 169.98 87.816 170.426 87.414 170.426 
86.676 c 170.426 85.828 169.762 85.238 168.855 85.238 c 168.02 85.238 167.469
 85.922 167.469 86.578 c 167.469 86.992 167.844 86.992 167.863 86.992 c 
167.992 86.992 168.25 86.906 168.25 86.602 c 168.25 86.406 168.117 86.215
 167.855 86.215 c 167.801 86.215 167.781 86.215 167.762 86.223 c 167.93 
85.742 168.328 85.469 168.762 85.469 c 169.434 85.469 169.754 86.07 169.754
 86.676 c 169.754 87.266 169.383 87.852 168.977 88.312 c 167.555 89.895 
l 167.469 89.977 167.469 89.992 167.469 90.168 c 170.219 90.168 l 170.426
 88.883 l 170.242 88.883 l 170.203 89.105 170.152 89.43 170.078 89.539 c
 170.023 89.598 169.539 89.598 169.375 89.598 c h
168.043 89.598 m f*
172.352 88.73 m 172.367 88.734 l 172.406 88.742 l 172.43 88.75 l 172.453
 88.754 l 172.48 88.762 l 172.512 88.77 l 172.539 88.777 l 172.57 88.785
 l 172.633 88.809 l 172.668 88.82 l 172.73 88.852 l 172.766 88.867 l 172.797
 88.883 l 172.828 88.906 l 172.859 88.926 l 172.922 88.973 l 172.977 89.027
 l 173 89.055 l 173.023 89.086 l 173.047 89.121 l 173.055 89.137 l 173.062
 89.156 l 173.074 89.176 l 173.082 89.191 l 173.09 89.215 l 173.094 89.234
 l 173.102 89.254 l 173.105 89.273 l 173.121 89.367 l 173.121 89.414 l 173.121
 89.789 172.859 90.086 172.285 90.086 c 171.664 90.086 171.395 89.664 171.254
 89.035 c 171.234 88.941 171.227 88.91 171.152 88.91 c 171.055 88.91 171.055
 88.961 171.055 89.098 c 171.055 90.074 l 171.055 90.199 171.055 90.25 171.137
 90.25 c 171.172 90.25 171.18 90.242 171.32 90.102 c 171.336 90.086 171.336
 90.074 171.469 89.934 c 171.797 90.242 172.129 90.25 172.285 90.25 c 173.137
 90.25 173.477 89.754 173.477 89.223 c 173.477 88.832 173.254 88.609 173.164
 88.52 c 172.922 88.281 172.633 88.223 172.32 88.164 c 171.906 88.082 171.41
 87.984 171.41 87.555 c 171.41 87.297 171.602 86.992 172.238 86.992 c 173.055
 86.992 173.09 87.66 173.105 87.891 c 173.113 87.957 173.18 87.957 173.195
 87.957 c 173.289 87.957 173.289 87.918 173.289 87.777 c 173.289 87.031 
l 173.289 86.906 173.289 86.855 173.211 86.855 c 173.172 86.855 173.156 
86.855 173.062 86.941 c 173.039 86.973 172.965 87.035 172.934 87.059 c 172.652
 86.855 172.352 86.855 172.238 86.855 c 171.336 86.855 171.055 87.348 171.055
 87.762 c 171.055 88.023 171.172 88.23 171.375 88.395 c 171.609 88.586 171.82
 88.629 172.352 88.73 c h
172.352 88.73 m f*
1 g
184.254 104.883 7.086 7.086 re f
0 g
q 1 0 0 1 0 0 cm
184.254 104.883 7.086 7.086 re S Q
171.242 105.914 m 171.242 105.84 l 171.238 105.832 l 171.238 105.805 l 
171.234 105.793 l 171.234 105.777 l 171.227 105.762 l 171.227 105.754 l 
171.219 105.746 l 171.215 105.738 l 171.211 105.734 l 171.195 105.727 l 
171.191 105.723 l 171.18 105.723 l 171.176 105.719 l 171.164 105.719 l 171.16
 105.715 l 171.102 105.715 l 171.094 105.711 l 171.062 105.711 l 170.578
 106.211 169.891 106.211 169.641 106.211 c 169.641 106.457 l 169.797 106.457
 170.258 106.457 170.66 106.25 c 170.66 110.305 l 170.66 110.586 170.641
 110.68 169.938 110.68 c 169.684 110.68 l 169.684 110.922 l 169.961 110.898
 170.641 110.898 170.953 110.898 c 171.266 110.898 171.945 110.898 172.219
 110.922 c 172.219 110.68 l 171.969 110.68 l 171.266 110.68 171.242 110.594
 171.242 110.305 c h
171.242 105.914 m f*
174.488 109.406 m 174.508 109.41 l 174.523 109.41 l 174.547 109.418 l 174.57
 109.422 l 174.598 109.43 l 174.625 109.434 l 174.656 109.441 l 174.688 
109.453 l 174.719 109.461 l 174.754 109.473 l 174.785 109.484 l 174.82 109.496
 l 174.891 109.527 l 174.961 109.566 l 174.992 109.586 l 175.027 109.609
 l 175.09 109.656 l 175.148 109.715 l 175.176 109.746 l 175.223 109.816 
l 175.234 109.832 l 175.242 109.852 l 175.25 109.875 l 175.27 109.914 l 
175.273 109.934 l 175.281 109.957 l 175.285 109.977 l 175.293 110 l 175.297
 110.027 l 175.301 110.051 l 175.301 110.125 l 175.301 110.523 175.027 110.836
 174.418 110.836 c 173.762 110.836 173.48 110.391 173.328 109.727 c 173.309
 109.625 173.301 109.594 173.223 109.594 c 173.121 109.594 173.121 109.648
 173.121 109.789 c 173.121 110.824 l 173.121 110.957 173.121 111.012 173.203
 111.012 c 173.242 111.012 173.25 111.004 173.398 110.852 c 173.418 110.836
 173.418 110.824 173.559 110.676 c 173.902 111.004 174.254 111.012 174.418
 111.012 c 175.316 111.012 175.676 110.484 175.676 109.922 c 175.676 109.508
 175.441 109.273 175.348 109.18 c 175.09 108.93 174.785 108.863 174.457 
108.805 c 174.02 108.719 173.496 108.613 173.496 108.16 c 173.496 107.887
 173.695 107.566 174.371 107.566 c 175.23 107.566 175.27 108.27 175.285 
108.516 c 175.297 108.586 175.363 108.586 175.379 108.586 c 175.48 108.586
 175.48 108.547 175.48 108.398 c 175.48 107.605 l 175.48 107.473 175.48 
107.422 175.395 107.422 c 175.355 107.422 175.34 107.422 175.238 107.512
 c 175.219 107.547 175.141 107.613 175.105 107.637 c 174.809 107.422 174.488
 107.422 174.371 107.422 c 173.418 107.422 173.121 107.941 173.121 108.383
 c 173.121 108.656 173.242 108.875 173.457 109.047 c 173.703 109.25 173.926
 109.297 174.488 109.406 c h
174.488 109.406 m f*
169.902 58.996 m 169.965 58.977 l 170.02 58.953 l 170.078 58.93 l 170.133
 58.906 l 170.188 58.875 l 170.242 58.848 l 170.293 58.816 l 170.344 58.781
 l 170.438 58.711 l 170.484 58.672 l 170.527 58.637 l 170.57 58.594 l 170.609
 58.551 l 170.648 58.512 l 170.688 58.465 l 170.723 58.418 l 170.754 58.371
 l 170.785 58.328 l 170.812 58.277 l 170.844 58.227 l 170.891 58.125 l 170.91
 58.07 l 170.93 58.02 l 170.961 57.91 l 170.969 57.855 l 170.98 57.801 l
 170.984 57.742 l 170.988 57.688 l 170.992 57.629 l 170.992 56.992 170.305
 56.559 169.562 56.559 c 168.777 56.559 168.188 57.023 168.188 57.613 c 
168.188 57.871 168.359 58.02 168.586 58.02 c 168.824 58.02 168.977 57.848
 168.977 57.621 c 168.977 57.234 168.613 57.234 168.5 57.234 c 168.738 56.855
 169.25 56.75 169.531 56.75 c 169.848 56.75 170.277 56.922 170.277 57.621
 c 170.277 57.715 170.258 58.164 170.059 58.508 c 169.828 58.883 169.562
 58.902 169.367 58.914 c 169.305 58.922 169.121 58.934 169.062 58.934 c 
169.004 58.941 168.945 58.949 168.945 59.027 c 168.945 59.113 169.004 59.113
 169.133 59.113 c 169.477 59.113 l 170.113 59.113 170.402 59.641 170.402
 60.402 c 170.402 61.457 169.863 61.684 169.523 61.684 c 169.188 61.684 
168.605 61.551 168.336 61.094 c 168.605 61.133 168.848 60.961 168.848 60.664
 c 168.848 60.387 168.637 60.23 168.41 60.23 c 168.227 60.23 167.977 60.34
 167.977 60.684 c 167.977 61.391 168.699 61.898 169.547 61.898 c 170.492
 61.898 171.199 61.195 171.199 60.402 c 171.199 59.766 170.711 59.16 169.902
 58.996 c h
169.902 58.996 m f*
173.156 60.223 m 173.176 60.227 l 173.191 60.23 l 173.238 60.238 l 173.293
 60.254 l 173.387 60.277 l 173.418 60.289 l 173.453 60.301 l 173.523 60.332
 l 173.555 60.348 l 173.59 60.363 l 173.625 60.383 l 173.656 60.402 l 173.691
 60.426 l 173.754 60.473 l 173.812 60.531 l 173.84 60.562 l 173.863 60.594
 l 173.887 60.629 l 173.895 60.648 l 173.906 60.668 l 173.93 60.727 l 173.938
 60.75 l 173.945 60.77 l 173.965 60.887 l 173.965 60.938 l 173.965 61.332
 173.691 61.645 173.09 61.645 c 172.434 61.645 172.156 61.203 172.008 60.543
 c 171.984 60.441 171.977 60.41 171.898 60.41 c 171.797 60.41 171.797 60.465
 171.797 60.605 c 171.797 61.629 l 171.797 61.762 171.797 61.816 171.883
 61.816 c 171.922 61.816 171.93 61.809 172.078 61.66 c 172.094 61.645 172.094
 61.629 172.234 61.484 c 172.574 61.809 172.926 61.816 173.09 61.816 c 173.98
 61.816 174.336 61.293 174.336 60.738 c 174.336 60.324 174.102 60.094 174.012
 60 c 173.754 59.75 173.453 59.688 173.125 59.625 c 172.691 59.539 172.172
 59.438 172.172 58.988 c 172.172 58.719 172.371 58.398 173.039 58.398 c 
173.895 58.398 173.934 59.098 173.949 59.34 c 173.957 59.41 174.023 59.41
 174.043 59.41 c 174.141 59.41 174.141 59.371 174.141 59.223 c 174.141 58.438
 l 174.141 58.305 174.141 58.254 174.059 58.254 c 174.02 58.254 174.004 
58.254 173.902 58.344 c 173.879 58.379 173.801 58.445 173.77 58.469 c 173.477
 58.254 173.156 58.254 173.039 58.254 c 172.094 58.254 171.797 58.773 171.797
 59.207 c 171.797 59.477 171.922 59.695 172.133 59.867 c 172.379 60.07 172.598
 60.117 173.156 60.223 c h
173.156 60.223 m f*
1 g
183.73 55.277 7.086 7.086 re f
0 g
q 1 0 0 1 0 0 cm
183.73 55.277 7.086 7.086 re S Q
211.34 74.027 m 212.125 73.266 l 213.281 72.246 213.727 71.844 213.727 
71.105 c 213.727 70.258 213.059 69.668 212.156 69.668 c 211.316 69.668 210.77
 70.352 210.77 71.008 c 210.77 71.422 211.141 71.422 211.16 71.422 c 211.289
 71.422 211.547 71.332 211.547 71.031 c 211.547 70.836 211.414 70.645 211.156
 70.645 c 211.098 70.645 211.082 70.645 211.062 70.652 c 211.23 70.172 211.629
 69.898 212.059 69.898 c 212.734 69.898 213.051 70.5 213.051 71.105 c 213.051
 71.695 212.68 72.281 212.273 72.742 c 210.855 74.324 l 210.77 74.406 210.77
 74.422 210.77 74.598 c 213.516 74.598 l 213.727 73.309 l 213.539 73.309
 l 213.504 73.531 213.453 73.859 213.379 73.969 c 213.324 74.027 212.836
 74.027 212.676 74.027 c h
211.34 74.027 m f*
215.383 71.816 m 215.383 71.328 l 214.316 71.406 l 214.316 71.637 l 214.844
 71.637 214.895 71.684 214.895 72.008 c 214.895 75.473 l 214.895 75.809 
214.812 75.809 214.316 75.809 c 214.316 76.035 l 214.57 76.027 214.953 76.012
 215.145 76.012 c 215.344 76.012 215.723 76.027 215.984 76.035 c 215.984
 75.809 l 215.484 75.809 215.406 75.809 215.406 75.473 c 215.406 74.16 l
 215.512 74.066 l 215.406 73.91 215.406 73.902 215.406 73.758 c 215.406 
72.102 l 215.617 71.727 215.984 71.512 216.359 71.512 c 216.902 71.512 217.352
 72.164 217.352 73 c 217.352 73.895 216.832 74.516 216.285 74.516 c 215.988
 74.516 215.711 74.367 215.512 74.066 c 215.406 74.16 l 215.441 74.281 215.754
 74.68 216.316 74.68 c 217.199 74.68 217.965 73.957 217.965 73 c 217.965
 72.059 217.25 71.328 216.418 71.328 c 215.84 71.328 215.531 71.652 215.383
 71.816 c h
215.383 71.816 m f*
1 g
220.207 69.449 7.086 7.086 re f
0 g
q 1 0 0 1 0 0 cm
220.207 69.449 7.086 7.086 re S Q
1 0 0 rg
0.510236 w
q 1 0 0 1 0 0 cm
222.754 70.559 m 222.754 75.617 l S Q
222.137 71.539 m 222.754 69.867 l 223.367 71.539 l 223.004 71.273 222.508
 71.273 222.137 71.539 c h
222.137 71.539 m f*
0.0956693 w
1 j
q 0 1 -1 0 0 0 cm
71.539 -222.137 m 69.867 -222.754 l 71.539 -223.367 l 71.273 -223.004 71.273
 -222.508 71.539 -222.137 c h
71.539 -222.137 m S Q
1 g
227.293 69.449 7.086 7.086 re f
0 g
0.751181 w
0 j
q 1 0 0 1 0 0 cm
227.293 69.449 7.086 7.086 re S Q
1 0 0 rg
0.510236 w
q 1 0 0 1 0 0 cm
229.844 70.559 m 229.844 75.617 l S Q
229.227 71.539 m 229.84 69.867 l 230.453 71.539 l 230.09 71.273 229.594
 71.273 229.227 71.539 c h
229.227 71.539 m f*
0.0956693 w
1 j
q 0 1 -1 0 0 0 cm
71.539 -229.227 m 69.867 -229.84 l 71.539 -230.453 l 71.273 -230.09 71.273
 -229.594 71.539 -229.227 c h
71.539 -229.227 m S Q
1 g
234.379 69.449 7.086 7.086 re f
0 g
0.751181 w
0 j
q 1 0 0 1 0 0 cm
234.379 69.449 7.086 7.086 re S Q
1 0 0 rg
0.510236 w
q 1 0 0 1 0 0 cm
236.93 70.559 m 236.93 75.617 l S Q
236.312 71.539 m 236.926 69.867 l 237.543 71.539 l 237.18 71.273 236.68
 71.273 236.312 71.539 c h
236.312 71.539 m f*
0.0956693 w
1 j
q 0 1 -1 0 0 0 cm
71.539 -236.312 m 69.867 -236.926 l 71.539 -237.543 l 71.273 -237.18 71.273
 -236.68 71.539 -236.312 c h
71.539 -236.312 m S Q
1 g
227.293 83.621 7.086 7.086 re f
0 g
0.751181 w
0 j
q 1 0 0 1 0 0 cm
227.293 83.621 7.086 7.086 re S Q
0.510236 w
q 1 0 0 1 0 0 cm
229.844 84.73 m 229.844 89.793 l S Q
229.227 85.715 m 229.84 84.043 l 230.453 85.715 l 230.09 85.445 229.594
 85.449 229.227 85.715 c h
229.227 85.715 m f*
0.0956693 w
1 j
q 0 1 -1 0 0 0 cm
85.715 -229.227 m 84.043 -229.84 l 85.715 -230.453 l 85.445 -230.09 85.449
 -229.594 85.715 -229.227 c h
85.715 -229.227 m S Q
0.510236 w
0 j
q 1 0 0 1 0 0 cm
231.668 89.586 m 231.668 84.523 l S Q
232.285 88.602 m 231.672 90.273 l 231.059 88.602 l 231.422 88.867 231.918
 88.867 232.285 88.602 c h
232.285 88.602 m f*
0.0956693 w
1 j
q 0 -1 1 0 0 0 cm
-88.602 232.285 m -90.273 231.672 l -88.602 231.059 l -88.867 231.422 -88.867
 231.918 -88.602 232.285 c h
-88.602 232.285 m S Q
211.082 89.598 m 211.867 88.836 l 213.02 87.816 213.469 87.414 213.469 
86.676 c 213.469 85.828 212.801 85.238 211.898 85.238 c 211.059 85.238 210.512
 85.922 210.512 86.578 c 210.512 86.992 210.883 86.992 210.902 86.992 c 
211.031 86.992 211.289 86.906 211.289 86.602 c 211.289 86.406 211.156 86.215
 210.898 86.215 c 210.84 86.215 210.824 86.215 210.801 86.223 c 210.973 
85.742 211.371 85.469 211.801 85.469 c 212.473 85.469 212.793 86.07 212.793
 86.676 c 212.793 87.266 212.422 87.852 212.016 88.312 c 210.598 89.895 
l 210.512 89.977 210.512 89.992 210.512 90.168 c 213.258 90.168 l 213.469
 88.883 l 213.281 88.883 l 213.242 89.105 213.195 89.43 213.121 89.539 c
 213.066 89.598 212.578 89.598 212.418 89.598 c h
211.082 89.598 m f*
215.391 88.73 m 215.406 88.734 l 215.426 88.738 l 215.449 88.742 l 215.469
 88.75 l 215.496 88.754 l 215.551 88.77 l 215.582 88.777 l 215.609 88.785
 l 215.641 88.797 l 215.676 88.809 l 215.707 88.82 l 215.738 88.836 l 215.773
 88.852 l 215.836 88.883 l 215.867 88.906 l 215.902 88.926 l 215.93 88.949
 l 215.961 88.973 l 216.016 89.027 l 216.039 89.055 l 216.066 89.086 l 216.086
 89.121 l 216.098 89.137 l 216.113 89.176 l 216.121 89.191 l 216.129 89.215
 l 216.133 89.234 l 216.141 89.254 l 216.145 89.273 l 216.152 89.297 l 216.16
 89.344 l 216.16 89.414 l 216.16 89.789 215.902 90.086 215.324 90.086 c 
214.703 90.086 214.438 89.664 214.293 89.035 c 214.273 88.941 214.266 88.91
 214.191 88.91 c 214.094 88.91 214.094 88.961 214.094 89.098 c 214.094 90.074
 l 214.094 90.199 214.094 90.25 214.176 90.25 c 214.215 90.25 214.219 90.242
 214.363 90.102 c 214.375 90.086 214.375 90.074 214.512 89.934 c 214.836
 90.242 215.172 90.25 215.324 90.25 c 216.176 90.25 216.516 89.754 216.516
 89.223 c 216.516 88.832 216.293 88.609 216.207 88.52 c 215.961 88.281 215.672
 88.223 215.359 88.164 c 214.945 88.082 214.449 87.984 214.449 87.555 c 
214.449 87.297 214.641 86.992 215.281 86.992 c 216.094 86.992 216.133 87.66
 216.145 87.891 c 216.156 87.957 216.219 87.957 216.234 87.957 c 216.332
 87.957 216.332 87.918 216.332 87.777 c 216.332 87.031 l 216.332 86.906 
216.332 86.855 216.25 86.855 c 216.215 86.855 216.199 86.855 216.102 86.941
 c 216.082 86.973 216.008 87.035 215.977 87.059 c 215.695 86.855 215.391
 86.855 215.281 86.855 c 214.375 86.855 214.094 87.348 214.094 87.762 c 
214.094 88.023 214.215 88.23 214.414 88.395 c 214.648 88.586 214.859 88.629
 215.391 88.73 c h
215.391 88.73 m f*
1 g
227.293 104.883 7.086 7.086 re f
0 g
0.751181 w
0 j
q 1 0 0 1 0 0 cm
227.293 104.883 7.086 7.086 re S Q
0.510236 w
q 1 0 0 1 0 0 cm
229.844 105.992 m 229.844 111.051 l S Q
229.227 106.973 m 229.84 105.301 l 230.453 106.973 l 230.09 106.707 229.594
 106.707 229.227 106.973 c h
229.227 106.973 m f*
0.0956693 w
1 j
q 0 1 -1 0 0 0 cm
106.973 -229.227 m 105.301 -229.84 l 106.973 -230.453 l 106.707 -230.09
 106.707 -229.594 106.973 -229.227 c h
106.973 -229.227 m S Q
0.510236 w
0 j
q 1 0 0 1 0 0 cm
231.668 110.844 m 231.668 105.785 l S Q
232.285 109.863 m 231.672 111.535 l 231.059 109.863 l 231.422 110.129 231.918
 110.129 232.285 109.863 c h
232.285 109.863 m f*
0.0956693 w
1 j
q 0 -1 1 0 0 0 cm
-109.863 232.285 m -111.535 231.672 l -109.863 231.059 l -110.129 231.422
 -110.129 231.918 -109.863 232.285 c h
-109.863 232.285 m S Q
214.281 105.914 m 214.281 105.809 l 214.277 105.805 l 214.277 105.785 l
 214.273 105.777 l 214.273 105.77 l 214.266 105.754 l 214.258 105.746 l 
214.254 105.738 l 214.25 105.734 l 214.242 105.73 l 214.238 105.727 l 214.23
 105.723 l 214.219 105.723 l 214.215 105.719 l 214.207 105.719 l 214.203
 105.715 l 214.141 105.715 l 214.133 105.711 l 214.102 105.711 l 213.617
 106.211 212.93 106.211 212.68 106.211 c 212.68 106.457 l 212.836 106.457
 213.297 106.457 213.703 106.25 c 213.703 110.305 l 213.703 110.586 213.68
 110.68 212.977 110.68 c 212.727 110.68 l 212.727 110.922 l 213 110.898 
213.68 110.898 213.992 110.898 c 214.309 110.898 214.984 110.898 215.262
 110.922 c 215.262 110.68 l 215.012 110.68 l 214.309 110.68 214.281 110.594
 214.281 110.305 c h
214.281 105.914 m f*
217.527 109.406 m 217.547 109.41 l 217.566 109.41 l 217.59 109.418 l 217.613
 109.422 l 217.641 109.43 l 217.668 109.434 l 217.695 109.441 l 217.73 109.453
 l 217.762 109.461 l 217.793 109.473 l 217.863 109.496 l 217.898 109.512
 l 217.93 109.527 l 218.035 109.586 l 218.129 109.656 l 218.188 109.715 
l 218.215 109.746 l 218.242 109.781 l 218.262 109.816 l 218.273 109.832 
l 218.281 109.852 l 218.301 109.891 l 218.309 109.914 l 218.312 109.934 
l 218.324 109.957 l 218.328 109.977 l 218.332 110 l 218.336 110.027 l 218.34
 110.051 l 218.34 110.074 l 218.344 110.102 l 218.344 110.125 l 218.344 
110.523 218.066 110.836 217.461 110.836 c 216.801 110.836 216.52 110.391
 216.371 109.727 c 216.348 109.625 216.34 109.594 216.262 109.594 c 216.16
 109.594 216.16 109.648 216.16 109.789 c 216.16 110.824 l 216.16 110.957
 216.16 111.012 216.246 111.012 c 216.285 111.012 216.293 111.004 216.441
 110.852 c 216.457 110.836 216.457 110.824 216.598 110.676 c 216.941 111.004
 217.297 111.012 217.461 111.012 c 218.359 111.012 218.719 110.484 218.719
 109.922 c 218.719 109.508 218.484 109.273 218.391 109.18 c 218.133 108.93
 217.824 108.863 217.496 108.805 c 217.059 108.719 216.535 108.613 216.535
 108.16 c 216.535 107.887 216.738 107.566 217.41 107.566 c 218.273 107.566
 218.312 108.27 218.324 108.516 c 218.336 108.586 218.402 108.586 218.422
 108.586 c 218.523 108.586 218.523 108.547 218.523 108.398 c 218.523 107.605
 l 218.523 107.473 218.523 107.422 218.438 107.422 c 218.398 107.422 218.383
 107.422 218.281 107.512 c 218.258 107.547 218.18 107.613 218.145 107.637
 c 217.848 107.422 217.527 107.422 217.41 107.422 c 216.457 107.422 216.16
 107.941 216.16 108.383 c 216.16 108.656 216.285 108.875 216.496 109.047
 c 216.746 109.25 216.969 109.297 217.527 109.406 c h
217.527 109.406 m f*
212.945 58.996 m 213.004 58.977 l 213.121 58.93 l 213.176 58.906 l 213.227
 58.875 l 213.281 58.848 l 213.332 58.816 l 213.383 58.781 l 213.43 58.746
 l 213.48 58.711 l 213.523 58.672 l 213.566 58.637 l 213.691 58.512 l 213.762
 58.418 l 213.793 58.371 l 213.824 58.328 l 213.855 58.277 l 213.883 58.227
 l 213.93 58.125 l 213.953 58.07 l 213.969 58.02 l 214 57.91 l 214.012 57.855
 l 214.02 57.801 l 214.027 57.742 l 214.031 57.688 l 214.031 57.629 l 214.031
 56.992 213.348 56.559 212.602 56.559 c 211.816 56.559 211.23 57.023 211.23
 57.613 c 211.23 57.871 211.398 58.02 211.625 58.02 c 211.863 58.02 212.02
 57.848 212.02 57.621 c 212.02 57.234 211.652 57.234 211.539 57.234 c 211.777
 56.855 212.293 56.75 212.57 56.75 c 212.887 56.75 213.316 56.922 213.316
 57.621 c 213.316 57.715 213.301 58.164 213.098 58.508 c 212.867 58.883 
212.602 58.902 212.41 58.914 c 212.348 58.922 212.16 58.934 212.105 58.934
 c 212.043 58.941 211.988 58.949 211.988 59.027 c 211.988 59.113 212.043
 59.113 212.176 59.113 c 212.516 59.113 l 213.156 59.113 213.441 59.641 
213.441 60.402 c 213.441 61.457 212.906 61.684 212.562 61.684 c 212.23 61.684
 211.645 61.551 211.375 61.094 c 211.645 61.133 211.887 60.961 211.887 60.664
 c 211.887 60.387 211.68 60.23 211.453 60.23 c 211.27 60.23 211.02 60.34
 211.02 60.684 c 211.02 61.391 211.738 61.898 212.586 61.898 c 213.535 61.898
 214.238 61.195 214.238 60.402 c 214.238 59.766 213.75 59.16 212.945 58.996
 c h
212.945 58.996 m f*
216.199 60.223 m 216.215 60.227 l 216.234 60.23 l 216.281 60.238 l 216.363
 60.262 l 216.426 60.277 l 216.461 60.289 l 216.492 60.301 l 216.633 60.363
 l 216.664 60.383 l 216.699 60.402 l 216.793 60.473 l 216.852 60.531 l 216.879
 60.562 l 216.902 60.594 l 216.926 60.629 l 216.938 60.648 l 216.945 60.668
 l 216.957 60.688 l 216.973 60.727 l 216.977 60.75 l 216.984 60.77 l 216.992
 60.816 l 217 60.84 l 217 60.863 l 217.004 60.887 l 217.004 60.938 l 217.004
 61.332 216.73 61.645 216.129 61.645 c 215.477 61.645 215.195 61.203 215.047
 60.543 c 215.027 60.441 215.02 60.41 214.941 60.41 c 214.84 60.41 214.84
 60.465 214.84 60.605 c 214.84 61.629 l 214.84 61.762 214.84 61.816 214.922
 61.816 c 214.961 61.816 214.969 61.809 215.117 61.66 c 215.133 61.645 215.133
 61.629 215.273 61.484 c 215.613 61.809 215.965 61.816 216.129 61.816 c 
217.02 61.816 217.379 61.293 217.379 60.738 c 217.379 60.324 217.145 60.094
 217.051 60 c 216.797 59.75 216.492 59.688 216.164 59.625 c 215.73 59.539
 215.211 59.438 215.211 58.988 c 215.211 58.719 215.41 58.398 216.082 58.398
 c 216.934 58.398 216.973 59.098 216.988 59.34 c 217 59.41 217.066 59.41
 217.082 59.41 c 217.184 59.41 217.184 59.371 217.184 59.223 c 217.184 58.438
 l 217.184 58.305 217.184 58.254 217.098 58.254 c 217.059 58.254 217.043
 58.254 216.941 58.344 c 216.922 58.379 216.844 58.445 216.809 58.469 c 
216.516 58.254 216.199 58.254 216.082 58.254 c 215.133 58.254 214.84 58.773
 214.84 59.207 c 214.84 59.477 214.961 59.695 215.172 59.867 c 215.418 60.07
 215.641 60.117 216.199 60.223 c h
216.199 60.223 m f*
1 g
226.773 55.277 7.086 7.086 re f
0 g
0.751181 w
0 j
q 1 0 0 1 0 0 cm
226.773 55.277 7.086 7.086 re S Q
253.859 74.027 m 254.645 73.266 l 255.801 72.246 256.246 71.844 256.246
 71.105 c 256.246 70.258 255.578 69.668 254.676 69.668 c 253.836 69.668 
253.289 70.352 253.289 71.008 c 253.289 71.422 253.66 71.422 253.68 71.422
 c 253.809 71.422 254.066 71.332 254.066 71.031 c 254.066 70.836 253.934
 70.645 253.676 70.645 c 253.617 70.645 253.602 70.645 253.582 70.652 c 
253.75 70.172 254.148 69.898 254.578 69.898 c 255.254 69.898 255.57 70.5
 255.57 71.105 c 255.57 71.695 255.199 72.281 254.793 72.742 c 253.375 74.324
 l 253.289 74.406 253.289 74.422 253.289 74.598 c 256.035 74.598 l 256.246
 73.309 l 256.059 73.309 l 256.023 73.531 255.973 73.859 255.898 73.969 
c 255.844 74.027 255.355 74.027 255.195 74.027 c h
253.859 74.027 m f*
257.902 71.816 m 257.902 71.328 l 256.836 71.406 l 256.836 71.637 l 257.363
 71.637 257.414 71.684 257.414 72.008 c 257.414 75.473 l 257.414 75.809 
257.332 75.809 256.836 75.809 c 256.836 76.035 l 257.09 76.027 257.473 76.012
 257.664 76.012 c 257.863 76.012 258.242 76.027 258.504 76.035 c 258.504
 75.809 l 258.008 75.809 257.926 75.809 257.926 75.473 c 257.926 74.16 l
 258.031 74.066 l 257.926 73.91 257.926 73.902 257.926 73.758 c 257.926 
72.102 l 258.137 71.727 258.504 71.512 258.879 71.512 c 259.422 71.512 259.871
 72.164 259.871 73 c 259.871 73.895 259.352 74.516 258.805 74.516 c 258.508
 74.516 258.23 74.367 258.031 74.066 c 257.926 74.16 l 257.961 74.281 258.273
 74.68 258.836 74.68 c 259.719 74.68 260.484 73.957 260.484 73 c 260.484
 72.059 259.77 71.328 258.938 71.328 c 258.359 71.328 258.051 71.652 257.902
 71.816 c h
257.902 71.816 m f*
1 g
262.727 69.449 7.086 7.086 re f
0 g
q 1 0 0 1 0 0 cm
262.727 69.449 7.086 7.086 re S Q
0.510236 w
q 1 0 0 1 0 0 cm
265.273 70.559 m 265.273 75.617 l S Q
264.656 71.539 m 265.273 69.867 l 265.887 71.539 l 265.523 71.273 265.027
 71.273 264.656 71.539 c h
264.656 71.539 m f*
0.0956693 w
1 j
q 0 1 -1 0 0 0 cm
71.539 -264.656 m 69.867 -265.273 l 71.539 -265.887 l 71.273 -265.523 71.273
 -265.027 71.539 -264.656 c h
71.539 -264.656 m S Q
1 0 0 rg
0.510236 w
0 j
q 1 0 0 1 0 0 cm
267.102 75.41 m 267.102 70.352 l S Q
267.719 74.43 m 267.105 76.102 l 266.488 74.43 l 266.852 74.695 267.352
 74.695 267.719 74.43 c h
267.719 74.43 m f*
0.0956693 w
1 j
q 0 -1 1 0 0 0 cm
-74.43 267.719 m -76.102 267.105 l -74.43 266.488 l -74.695 266.852 -74.695
 267.352 -74.43 267.719 c h
-74.43 267.719 m S Q
1 g
269.812 69.449 7.086 7.086 re f
0 g
0.751181 w
0 j
q 1 0 0 1 0 0 cm
269.812 69.449 7.086 7.086 re S Q
0.510236 w
q 1 0 0 1 0 0 cm
272.363 70.559 m 272.363 75.617 l S Q
271.746 71.539 m 272.359 69.867 l 272.973 71.539 l 272.613 71.273 272.113
 71.273 271.746 71.539 c h
271.746 71.539 m f*
0.0956693 w
1 j
q 0 1 -1 0 0 0 cm
71.539 -271.746 m 69.867 -272.359 l 71.539 -272.973 l 71.273 -272.613 71.273
 -272.113 71.539 -271.746 c h
71.539 -271.746 m S Q
1 g
276.898 69.449 7.086 7.086 re f
0 g
0.751181 w
0 j
q 1 0 0 1 0 0 cm
276.898 69.449 7.086 7.086 re S Q
0.510236 w
q 1 0 0 1 0 0 cm
279.449 70.559 m 279.449 75.617 l S Q
278.832 71.539 m 279.445 69.867 l 280.062 71.539 l 279.699 71.273 279.203
 71.273 278.832 71.539 c h
278.832 71.539 m f*
0.0956693 w
1 j
q 0 1 -1 0 0 0 cm
71.539 -278.832 m 69.867 -279.445 l 71.539 -280.062 l 71.273 -279.699 71.273
 -279.203 71.539 -278.832 c h
71.539 -278.832 m S Q
1 g
269.812 83.621 7.086 7.086 re f
0 g
0.751181 w
0 j
q 1 0 0 1 0 0 cm
269.812 83.621 7.086 7.086 re S Q
0.510236 w
q 1 0 0 1 0 0 cm
272.363 84.73 m 272.363 89.793 l S Q
271.746 85.715 m 272.359 84.043 l 272.973 85.715 l 272.613 85.445 272.113
 85.449 271.746 85.715 c h
271.746 85.715 m f*
0.0956693 w
1 j
q 0 1 -1 0 0 0 cm
85.715 -271.746 m 84.043 -272.359 l 85.715 -272.973 l 85.445 -272.613 85.449
 -272.113 85.715 -271.746 c h
85.715 -271.746 m S Q
0.510236 w
0 j
q 1 0 0 1 0 0 cm
274.188 89.586 m 274.188 84.523 l S Q
274.809 88.602 m 274.191 90.273 l 273.578 88.602 l 273.941 88.867 274.438
 88.867 274.809 88.602 c h
274.809 88.602 m f*
0.0956693 w
1 j
q 0 -1 1 0 0 0 cm
-88.602 274.809 m -90.273 274.191 l -88.602 273.578 l -88.867 273.941 -88.867
 274.438 -88.602 274.809 c h
-88.602 274.809 m S Q
253.602 89.598 m 254.387 88.836 l 255.539 87.816 255.988 87.414 255.988
 86.676 c 255.988 85.828 255.32 85.238 254.418 85.238 c 253.578 85.238 253.031
 85.922 253.031 86.578 c 253.031 86.992 253.402 86.992 253.422 86.992 c 
253.551 86.992 253.809 86.906 253.809 86.602 c 253.809 86.406 253.676 86.215
 253.418 86.215 c 253.359 86.215 253.344 86.215 253.32 86.223 c 253.492 
85.742 253.891 85.469 254.32 85.469 c 254.992 85.469 255.312 86.07 255.312
 86.676 c 255.312 87.266 254.941 87.852 254.535 88.312 c 253.117 89.895 
l 253.031 89.977 253.031 89.992 253.031 90.168 c 255.777 90.168 l 255.988
 88.883 l 255.801 88.883 l 255.766 89.105 255.715 89.43 255.641 89.539 c
 255.586 89.598 255.098 89.598 254.938 89.598 c h
253.602 89.598 m f*
257.91 88.73 m 257.926 88.734 l 257.945 88.738 l 257.969 88.742 l 257.988
 88.75 l 258.016 88.754 l 258.07 88.77 l 258.102 88.777 l 258.129 88.785
 l 258.16 88.797 l 258.195 88.809 l 258.227 88.82 l 258.258 88.836 l 258.293
 88.852 l 258.355 88.883 l 258.387 88.906 l 258.422 88.926 l 258.449 88.949
 l 258.48 88.973 l 258.562 89.055 l 258.586 89.086 l 258.605 89.121 l 258.617
 89.137 l 258.633 89.176 l 258.641 89.191 l 258.648 89.215 l 258.652 89.234
 l 258.668 89.273 l 258.68 89.344 l 258.68 89.414 l 258.68 89.789 258.422
 90.086 257.848 90.086 c 257.223 90.086 256.957 89.664 256.816 89.035 c 
256.793 88.941 256.785 88.91 256.711 88.91 c 256.617 88.91 256.617 88.961
 256.617 89.098 c 256.617 90.074 l 256.617 90.199 256.617 90.25 256.695 
90.25 c 256.734 90.25 256.738 90.242 256.883 90.102 c 256.895 90.086 256.895
 90.074 257.031 89.934 c 257.355 90.242 257.691 90.25 257.848 90.25 c 258.695
 90.25 259.035 89.754 259.035 89.223 c 259.035 88.832 258.812 88.609 258.727
 88.52 c 258.48 88.281 258.191 88.223 257.879 88.164 c 257.469 88.082 256.969
 87.984 256.969 87.555 c 256.969 87.297 257.164 86.992 257.801 86.992 c 
258.613 86.992 258.652 87.66 258.664 87.891 c 258.676 87.957 258.738 87.957
 258.754 87.957 c 258.852 87.957 258.852 87.918 258.852 87.777 c 258.852
 87.031 l 258.852 86.906 258.852 86.855 258.77 86.855 c 258.734 86.855 258.719
 86.855 258.621 86.941 c 258.602 86.973 258.527 87.035 258.496 87.059 c 
258.215 86.855 257.91 86.855 257.801 86.855 c 256.895 86.855 256.617 87.348
 256.617 87.762 c 256.617 88.023 256.734 88.23 256.934 88.395 c 257.168 
88.586 257.379 88.629 257.91 88.73 c h
257.91 88.73 m f*
1 g
269.812 104.883 7.086 7.086 re f
0 g
0.751181 w
0 j
q 1 0 0 1 0 0 cm
269.812 104.883 7.086 7.086 re S Q
0.510236 w
q 1 0 0 1 0 0 cm
272.363 105.992 m 272.363 111.051 l S Q
271.746 106.973 m 272.359 105.301 l 272.973 106.973 l 272.613 106.707 272.113
 106.707 271.746 106.973 c h
271.746 106.973 m f*
0.0956693 w
1 j
q 0 1 -1 0 0 0 cm
106.973 -271.746 m 105.301 -272.359 l 106.973 -272.973 l 106.707 -272.613
 106.707 -272.113 106.973 -271.746 c h
106.973 -271.746 m S Q
0.510236 w
0 j
q 1 0 0 1 0 0 cm
274.188 110.844 m 274.188 105.785 l S Q
274.809 109.863 m 274.191 111.535 l 273.578 109.863 l 273.941 110.129 274.438
 110.129 274.809 109.863 c h
274.809 109.863 m f*
0.0956693 w
1 j
q 0 -1 1 0 0 0 cm
-109.863 274.809 m -111.535 274.191 l -109.863 273.578 l -110.129 273.941
 -110.129 274.438 -109.863 274.809 c h
-109.863 274.809 m S Q
256.801 105.914 m 256.801 105.809 l 256.797 105.805 l 256.797 105.785 l
 256.793 105.777 l 256.793 105.77 l 256.785 105.754 l 256.777 105.746 l 
256.773 105.738 l 256.77 105.734 l 256.762 105.73 l 256.758 105.727 l 256.75
 105.723 l 256.738 105.723 l 256.734 105.719 l 256.727 105.719 l 256.723
 105.715 l 256.66 105.715 l 256.652 105.711 l 256.621 105.711 l 256.137 
106.211 255.449 106.211 255.199 106.211 c 255.199 106.457 l 255.355 106.457
 255.816 106.457 256.223 106.25 c 256.223 110.305 l 256.223 110.586 256.199
 110.68 255.496 110.68 c 255.246 110.68 l 255.246 110.922 l 255.52 110.898
 256.199 110.898 256.512 110.898 c 256.828 110.898 257.504 110.898 257.781
 110.922 c 257.781 110.68 l 257.531 110.68 l 256.828 110.68 256.801 110.594
 256.801 110.305 c h
256.801 105.914 m f*
260.051 109.406 m 260.066 109.41 l 260.086 109.41 l 260.109 109.418 l 260.133
 109.422 l 260.16 109.43 l 260.188 109.434 l 260.219 109.441 l 260.25 109.453
 l 260.281 109.461 l 260.312 109.473 l 260.383 109.496 l 260.418 109.512
 l 260.449 109.527 l 260.555 109.586 l 260.648 109.656 l 260.707 109.715
 l 260.734 109.746 l 260.762 109.781 l 260.781 109.816 l 260.793 109.832
 l 260.801 109.852 l 260.82 109.891 l 260.828 109.914 l 260.836 109.934 
l 260.844 109.957 l 260.848 109.977 l 260.855 110.023 l 260.859 110.051 
l 260.859 110.074 l 260.863 110.102 l 260.863 110.125 l 260.863 110.523 
260.586 110.836 259.98 110.836 c 259.32 110.836 259.039 110.391 258.891 
109.727 c 258.867 109.625 258.859 109.594 258.781 109.594 c 258.68 109.594
 258.68 109.648 258.68 109.789 c 258.68 110.824 l 258.68 110.957 258.68 
111.012 258.766 111.012 c 258.805 111.012 258.812 111.004 258.961 110.852
 c 258.977 110.836 258.977 110.824 259.117 110.676 c 259.461 111.004 259.816
 111.012 259.98 111.012 c 260.879 111.012 261.238 110.484 261.238 109.922
 c 261.238 109.508 261.004 109.273 260.91 109.18 c 260.652 108.93 260.348
 108.863 260.016 108.805 c 259.578 108.719 259.055 108.613 259.055 108.16
 c 259.055 107.887 259.258 107.566 259.93 107.566 c 260.793 107.566 260.832
 108.27 260.844 108.516 c 260.855 108.586 260.922 108.586 260.941 108.586
 c 261.043 108.586 261.043 108.547 261.043 108.398 c 261.043 107.605 l 261.043
 107.473 261.043 107.422 260.957 107.422 c 260.918 107.422 260.902 107.422
 260.801 107.512 c 260.777 107.547 260.699 107.613 260.668 107.637 c 260.371
 107.422 260.051 107.422 259.93 107.422 c 258.977 107.422 258.68 107.941
 258.68 108.383 c 258.68 108.656 258.805 108.875 259.016 109.047 c 259.266
 109.25 259.488 109.297 260.051 109.406 c h
260.051 109.406 m f*
255.465 58.996 m 255.523 58.977 l 255.641 58.93 l 255.695 58.906 l 255.75
 58.875 l 255.801 58.848 l 255.852 58.816 l 255.902 58.781 l 255.949 58.746
 l 256 58.711 l 256.043 58.672 l 256.086 58.637 l 256.211 58.512 l 256.281
 58.418 l 256.375 58.277 l 256.402 58.227 l 256.449 58.125 l 256.473 58.07
 l 256.488 58.02 l 256.52 57.91 l 256.531 57.855 l 256.539 57.801 l 256.547
 57.742 l 256.551 57.688 l 256.551 57.629 l 256.551 56.992 255.867 56.559
 255.121 56.559 c 254.336 56.559 253.75 57.023 253.75 57.613 c 253.75 57.871
 253.918 58.02 254.145 58.02 c 254.383 58.02 254.539 57.848 254.539 57.621
 c 254.539 57.234 254.176 57.234 254.059 57.234 c 254.297 56.855 254.812
 56.75 255.094 56.75 c 255.41 56.75 255.836 56.922 255.836 57.621 c 255.836
 57.715 255.82 58.164 255.617 58.508 c 255.387 58.883 255.121 58.902 254.93
 58.914 c 254.867 58.922 254.68 58.934 254.625 58.934 c 254.562 58.941 254.508
 58.949 254.508 59.027 c 254.508 59.113 254.562 59.113 254.695 59.113 c 
255.035 59.113 l 255.676 59.113 255.961 59.641 255.961 60.402 c 255.961 
61.457 255.426 61.684 255.082 61.684 c 254.75 61.684 254.168 61.551 253.895
 61.094 c 254.168 61.133 254.406 60.961 254.406 60.664 c 254.406 60.387 
254.199 60.23 253.973 60.23 c 253.789 60.23 253.539 60.34 253.539 60.684
 c 253.539 61.391 254.258 61.898 255.109 61.898 c 256.055 61.898 256.758
 61.195 256.758 60.402 c 256.758 59.766 256.27 59.16 255.465 58.996 c h
255.465 58.996 m f*
258.719 60.223 m 258.734 60.227 l 258.754 60.23 l 258.801 60.238 l 258.883
 60.262 l 258.945 60.277 l 258.98 60.289 l 259.012 60.301 l 259.152 60.363
 l 259.184 60.383 l 259.219 60.402 l 259.312 60.473 l 259.371 60.531 l 259.398
 60.562 l 259.422 60.594 l 259.445 60.629 l 259.457 60.648 l 259.465 60.668
 l 259.477 60.688 l 259.492 60.727 l 259.496 60.75 l 259.504 60.77 l 259.508
 60.793 l 259.516 60.816 l 259.523 60.863 l 259.523 60.938 l 259.523 61.332
 259.25 61.645 258.648 61.645 c 257.996 61.645 257.715 61.203 257.566 60.543
 c 257.547 60.441 257.539 60.41 257.461 60.41 c 257.359 60.41 257.359 60.465
 257.359 60.605 c 257.359 61.629 l 257.359 61.762 257.359 61.816 257.441
 61.816 c 257.48 61.816 257.488 61.809 257.637 61.66 c 257.652 61.645 257.652
 61.629 257.793 61.484 c 258.133 61.809 258.484 61.816 258.648 61.816 c 
259.539 61.816 259.898 61.293 259.898 60.738 c 259.898 60.324 259.664 60.094
 259.57 60 c 259.316 59.75 259.012 59.688 258.684 59.625 c 258.25 59.539
 257.73 59.438 257.73 58.988 c 257.73 58.719 257.934 58.398 258.602 58.398
 c 259.453 58.398 259.492 59.098 259.508 59.34 c 259.52 59.41 259.586 59.41
 259.602 59.41 c 259.703 59.41 259.703 59.371 259.703 59.223 c 259.703 58.438
 l 259.703 58.305 259.703 58.254 259.617 58.254 c 259.578 58.254 259.562
 58.254 259.461 58.344 c 259.441 58.379 259.363 58.445 259.328 58.469 c 
259.035 58.254 258.719 58.254 258.602 58.254 c 257.652 58.254 257.359 58.773
 257.359 59.207 c 257.359 59.477 257.48 59.695 257.691 59.867 c 257.941 
60.07 258.16 60.117 258.719 60.223 c h
258.719 60.223 m f*
1 g
269.293 55.277 7.086 7.086 re f
0 g
0.751181 w
0 j
q 1 0 0 1 0 0 cm
269.293 55.277 7.086 7.086 re S Q
126.301 74.027 m 127.086 73.266 l 128.238 72.246 128.688 71.844 128.688
 71.105 c 128.688 70.258 128.02 69.668 127.117 69.668 c 126.277 69.668 125.73
 70.352 125.73 71.008 c 125.73 71.422 126.102 71.422 126.121 71.422 c 126.25
 71.422 126.508 71.332 126.508 71.031 c 126.508 70.836 126.375 70.645 126.117
 70.645 c 126.059 70.645 126.043 70.645 126.02 70.652 c 126.191 70.172 126.59
 69.898 127.02 69.898 c 127.691 69.898 128.012 70.5 128.012 71.105 c 128.012
 71.695 127.641 72.281 127.234 72.742 c 125.816 74.324 l 125.73 74.406 125.73
 74.422 125.73 74.598 c 128.477 74.598 l 128.688 73.309 l 128.5 73.309 l
 128.465 73.531 128.414 73.859 128.34 73.969 c 128.285 74.027 127.797 74.027
 127.637 74.027 c h
126.301 74.027 m f*
130.344 71.816 m 130.344 71.328 l 129.277 71.406 l 129.277 71.637 l 129.805
 71.637 129.855 71.684 129.855 72.008 c 129.855 75.473 l 129.855 75.809 
129.773 75.809 129.277 75.809 c 129.277 76.035 l 129.531 76.027 129.914 
76.012 130.105 76.012 c 130.305 76.012 130.684 76.027 130.945 76.035 c 130.945
 75.809 l 130.445 75.809 130.363 75.809 130.363 75.473 c 130.363 74.16 l
 130.469 74.066 l 130.363 73.91 130.363 73.902 130.363 73.758 c 130.363 
72.102 l 130.578 71.727 130.945 71.512 131.32 71.512 c 131.863 71.512 132.312
 72.164 132.312 73 c 132.312 73.895 131.793 74.516 131.246 74.516 c 130.949
 74.516 130.668 74.367 130.469 74.066 c 130.363 74.16 l 130.402 74.281 130.715
 74.68 131.277 74.68 c 132.16 74.68 132.926 73.957 132.926 73 c 132.926 
72.059 132.211 71.328 131.379 71.328 c 130.801 71.328 130.492 71.652 130.344
 71.816 c h
130.344 71.816 m f*
1 g
135.168 69.449 7.086 7.086 re f
0 g
q 1 0 0 1 0 0 cm
135.168 69.449 7.086 7.086 re S Q
1 g
142.254 69.449 7.086 7.086 re f
0 g
q 1 0 0 1 0 0 cm
142.254 69.449 7.086 7.086 re S Q
1 g
149.34 69.449 7.086 7.086 re f
0 g
q 1 0 0 1 0 0 cm
149.34 69.449 7.086 7.086 re S Q
1 g
142.254 83.621 7.086 7.086 re f
0 g
q 1 0 0 1 0 0 cm
142.254 83.621 7.086 7.086 re S Q
126.043 89.598 m 126.828 88.836 l 127.98 87.816 128.426 87.414 128.426 
86.676 c 128.426 85.828 127.762 85.238 126.859 85.238 c 126.02 85.238 125.473
 85.922 125.473 86.578 c 125.473 86.992 125.844 86.992 125.863 86.992 c 
125.992 86.992 126.25 86.906 126.25 86.602 c 126.25 86.406 126.117 86.215
 125.859 86.215 c 125.801 86.215 125.785 86.215 125.762 86.223 c 125.934
 85.742 126.332 85.469 126.762 85.469 c 127.434 85.469 127.754 86.07 127.754
 86.676 c 127.754 87.266 127.383 87.852 126.977 88.312 c 125.555 89.895 
l 125.473 89.977 125.473 89.992 125.473 90.168 c 128.219 90.168 l 128.426
 88.883 l 128.242 88.883 l 128.203 89.105 128.152 89.43 128.078 89.539 c
 128.027 89.598 127.539 89.598 127.379 89.598 c h
126.043 89.598 m f*
130.352 88.73 m 130.367 88.734 l 130.387 88.738 l 130.41 88.742 l 130.43
 88.75 l 130.457 88.754 l 130.539 88.777 l 130.57 88.785 l 130.633 88.809
 l 130.668 88.82 l 130.699 88.836 l 130.734 88.852 l 130.797 88.883 l 130.828
 88.906 l 130.863 88.926 l 130.891 88.949 l 130.922 88.973 l 130.977 89.027
 l 131 89.055 l 131.023 89.086 l 131.047 89.121 l 131.055 89.137 l 131.066
 89.156 l 131.074 89.176 l 131.082 89.191 l 131.09 89.215 l 131.094 89.234
 l 131.102 89.254 l 131.105 89.273 l 131.113 89.297 l 131.117 89.32 l 131.117
 89.344 l 131.121 89.367 l 131.121 89.414 l 131.121 89.789 130.863 90.086
 130.285 90.086 c 129.664 90.086 129.398 89.664 129.254 89.035 c 129.234
 88.941 129.227 88.91 129.152 88.91 c 129.055 88.91 129.055 88.961 129.055
 89.098 c 129.055 90.074 l 129.055 90.199 129.055 90.25 129.137 90.25 c 
129.172 90.25 129.18 90.242 129.324 90.102 c 129.336 90.086 129.336 90.074
 129.473 89.934 c 129.797 90.242 130.129 90.25 130.285 90.25 c 131.137 90.25
 131.477 89.754 131.477 89.223 c 131.477 88.832 131.254 88.609 131.168 88.52
 c 130.922 88.281 130.633 88.223 130.32 88.164 c 129.906 88.082 129.41 87.984
 129.41 87.555 c 129.41 87.297 129.602 86.992 130.242 86.992 c 131.055 86.992
 131.094 87.66 131.105 87.891 c 131.117 87.957 131.18 87.957 131.195 87.957
 c 131.293 87.957 131.293 87.918 131.293 87.777 c 131.293 87.031 l 131.293
 86.906 131.293 86.855 131.211 86.855 c 131.176 86.855 131.16 86.855 131.062
 86.941 c 131.043 86.973 130.969 87.035 130.938 87.059 c 130.656 86.855 
130.352 86.855 130.242 86.855 c 129.336 86.855 129.055 87.348 129.055 87.762
 c 129.055 88.023 129.172 88.23 129.375 88.395 c 129.609 88.586 129.82 88.629
 130.352 88.73 c h
130.352 88.73 m f*
1 g
142.254 104.883 7.086 7.086 re f
0 g
q 1 0 0 1 0 0 cm
142.254 104.883 7.086 7.086 re S Q
129.242 105.914 m 129.242 105.809 l 129.238 105.805 l 129.238 105.785 l
 129.234 105.777 l 129.234 105.77 l 129.227 105.754 l 129.219 105.746 l 
129.215 105.738 l 129.211 105.734 l 129.203 105.73 l 129.199 105.727 l 129.191
 105.723 l 129.18 105.723 l 129.176 105.719 l 129.168 105.719 l 129.16 105.715
 l 129.102 105.715 l 129.094 105.711 l 129.062 105.711 l 128.578 106.211
 127.891 106.211 127.641 106.211 c 127.641 106.457 l 127.797 106.457 128.258
 106.457 128.664 106.25 c 128.664 110.305 l 128.664 110.586 128.641 110.68
 127.938 110.68 c 127.688 110.68 l 127.688 110.922 l 127.961 110.898 128.641
 110.898 128.953 110.898 c 129.266 110.898 129.945 110.898 130.219 110.922
 c 130.219 110.68 l 129.973 110.68 l 129.266 110.68 129.242 110.594 129.242
 110.305 c h
129.242 105.914 m f*
132.488 109.406 m 132.508 109.41 l 132.527 109.41 l 132.551 109.418 l 132.574
 109.422 l 132.602 109.43 l 132.629 109.434 l 132.656 109.441 l 132.688 
109.453 l 132.719 109.461 l 132.824 109.496 l 132.855 109.512 l 132.891 
109.527 l 132.961 109.566 l 132.992 109.586 l 133.027 109.609 l 133.09 109.656
 l 133.148 109.715 l 133.176 109.746 l 133.203 109.781 l 133.223 109.816
 l 133.234 109.832 l 133.242 109.852 l 133.262 109.891 l 133.27 109.914 
l 133.273 109.934 l 133.281 109.957 l 133.289 109.977 l 133.293 110 l 133.297
 110.027 l 133.301 110.051 l 133.301 110.074 l 133.305 110.102 l 133.305
 110.125 l 133.305 110.523 133.027 110.836 132.422 110.836 c 131.762 110.836
 131.48 110.391 131.332 109.727 c 131.309 109.625 131.301 109.594 131.223
 109.594 c 131.121 109.594 131.121 109.648 131.121 109.789 c 131.121 110.824
 l 131.121 110.957 131.121 111.012 131.207 111.012 c 131.246 111.012 131.254
 111.004 131.402 110.852 c 131.418 110.836 131.418 110.824 131.559 110.676
 c 131.902 111.004 132.254 111.012 132.422 111.012 c 133.32 111.012 133.68
 110.484 133.68 109.922 c 133.68 109.508 133.441 109.273 133.352 109.18 
c 133.094 108.93 132.785 108.863 132.457 108.805 c 132.02 108.719 131.496
 108.613 131.496 108.16 c 131.496 107.887 131.699 107.566 132.371 107.566
 c 133.234 107.566 133.273 108.27 133.285 108.516 c 133.297 108.586 133.363
 108.586 133.383 108.586 c 133.48 108.586 133.48 108.547 133.48 108.398 
c 133.48 107.605 l 133.48 107.473 133.48 107.422 133.398 107.422 c 133.359
 107.422 133.344 107.422 133.242 107.512 c 133.219 107.547 133.141 107.613
 133.105 107.637 c 132.809 107.422 132.488 107.422 132.371 107.422 c 131.418
 107.422 131.121 107.941 131.121 108.383 c 131.121 108.656 131.246 108.875
 131.457 109.047 c 131.707 109.25 131.926 109.297 132.488 109.406 c h
132.488 109.406 m f*
127.906 58.996 m 127.965 58.977 l 128.023 58.953 l 128.133 58.906 l 128.188
 58.875 l 128.242 58.848 l 128.293 58.816 l 128.344 58.781 l 128.391 58.746
 l 128.441 58.711 l 128.484 58.672 l 128.527 58.637 l 128.613 58.551 l 128.648
 58.512 l 128.688 58.465 l 128.723 58.418 l 128.754 58.371 l 128.785 58.328
 l 128.816 58.277 l 128.844 58.227 l 128.891 58.125 l 128.914 58.07 l 128.93
 58.02 l 128.961 57.91 l 128.973 57.855 l 128.98 57.801 l 128.988 57.742
 l 128.988 57.688 l 128.992 57.629 l 128.992 56.992 128.309 56.559 127.562
 56.559 c 126.777 56.559 126.188 57.023 126.188 57.613 c 126.188 57.871 
126.359 58.02 126.586 58.02 c 126.824 58.02 126.98 57.848 126.98 57.621 
c 126.98 57.234 126.613 57.234 126.5 57.234 c 126.738 56.855 127.254 56.75
 127.531 56.75 c 127.848 56.75 128.277 56.922 128.277 57.621 c 128.277 57.715
 128.262 58.164 128.059 58.508 c 127.828 58.883 127.562 58.902 127.371 58.914
 c 127.309 58.922 127.121 58.934 127.066 58.934 c 127.004 58.941 126.949
 58.949 126.949 59.027 c 126.949 59.113 127.004 59.113 127.137 59.113 c 
127.477 59.113 l 128.117 59.113 128.402 59.641 128.402 60.402 c 128.402 
61.457 127.867 61.684 127.523 61.684 c 127.191 61.684 126.605 61.551 126.336
 61.094 c 126.605 61.133 126.848 60.961 126.848 60.664 c 126.848 60.387 
126.641 60.23 126.414 60.23 c 126.227 60.23 125.98 60.34 125.98 60.684 c
 125.98 61.391 126.699 61.898 127.547 61.898 c 128.496 61.898 129.199 61.195
 129.199 60.402 c 129.199 59.766 128.711 59.16 127.906 58.996 c h
127.906 58.996 m f*
131.16 60.223 m 131.176 60.227 l 131.195 60.23 l 131.242 60.238 l 131.266
 60.246 l 131.297 60.254 l 131.324 60.262 l 131.387 60.277 l 131.422 60.289
 l 131.453 60.301 l 131.559 60.348 l 131.59 60.363 l 131.66 60.402 l 131.754
 60.473 l 131.812 60.531 l 131.84 60.562 l 131.863 60.594 l 131.887 60.629
 l 131.898 60.648 l 131.93 60.727 l 131.938 60.75 l 131.945 60.77 l 131.953
 60.816 l 131.961 60.84 l 131.961 60.863 l 131.965 60.887 l 131.965 60.938
 l 131.965 61.332 131.691 61.645 131.09 61.645 c 130.438 61.645 130.156 
61.203 130.008 60.543 c 129.984 60.441 129.977 60.41 129.902 60.41 c 129.801
 60.41 129.801 60.465 129.801 60.605 c 129.801 61.629 l 129.801 61.762 129.801
 61.816 129.883 61.816 c 129.922 61.816 129.93 61.809 130.078 61.66 c 130.094
 61.645 130.094 61.629 130.234 61.484 c 130.574 61.809 130.926 61.816 131.09
 61.816 c 131.98 61.816 132.34 61.293 132.34 60.738 c 132.34 60.324 132.105
 60.094 132.012 60 c 131.758 59.75 131.453 59.688 131.125 59.625 c 130.691
 59.539 130.172 59.438 130.172 58.988 c 130.172 58.719 130.371 58.398 131.043
 58.398 c 131.895 58.398 131.934 59.098 131.949 59.34 c 131.961 59.41 132.027
 59.41 132.043 59.41 c 132.145 59.41 132.145 59.371 132.145 59.223 c 132.145
 58.438 l 132.145 58.305 132.145 58.254 132.059 58.254 c 132.02 58.254 132.004
 58.254 131.902 58.344 c 131.883 58.379 131.805 58.445 131.77 58.469 c 131.477
 58.254 131.16 58.254 131.043 58.254 c 130.094 58.254 129.801 58.773 129.801
 59.207 c 129.801 59.477 129.922 59.695 130.133 59.867 c 130.379 60.07 130.602
 60.117 131.16 60.223 c h
131.16 60.223 m f*
1 g
141.73 55.277 7.09 7.086 re f
0 g
q 1 0 0 1 0 0 cm
141.73 55.277 7.09 7.086 re S Q
181.047 122.789 m 181.047 123.59 l 181.047 123.926 181.031 124.027 180.344
 124.027 c 180.152 124.027 l 180.152 124.312 l 180.531 124.285 181.012 124.285
 181.402 124.285 c 181.789 124.285 182.277 124.285 182.656 124.312 c 182.656
 124.027 l 182.461 124.027 l 181.777 124.027 181.758 123.926 181.758 123.59
 c 181.758 122.789 l 182.684 122.789 l 182.684 122.504 l 181.758 122.504
 l 181.758 118.297 l 181.758 118.109 181.758 118.059 181.613 118.059 c 181.527
 118.059 181.5 118.059 181.426 118.168 c 178.59 122.504 l 178.852 122.504
 l 181.105 119.055 l 181.105 122.504 l 178.59 122.504 l 178.59 122.789 l
 h
181.047 122.789 m f*
184.688 122.18 m 184.715 122.176 l 184.879 122.176 l 184.918 122.172 l 
184.957 122.172 l 185 122.168 l 185.043 122.168 l 185.086 122.164 l 185.32
 122.145 l 185.422 122.133 l 185.625 122.102 l 185.727 122.078 l 185.824
 122.059 l 185.871 122.043 l 185.918 122.031 l 185.969 122.016 l 186.012
 122 l 186.059 121.984 l 186.102 121.965 l 186.75 121.688 186.797 121.145
 186.797 121.016 c 186.797 120.605 186.445 120.23 185.805 120.23 c 185.805
 120.434 l 186.242 120.434 186.492 120.699 186.492 121.016 c 186.492 121.973
 185.012 121.973 184.633 121.973 c 184.254 121.973 l 184.617 120.57 185.566
 120.434 185.805 120.434 c 185.805 120.23 l 184.781 120.23 183.387 121.125
 183.387 122.742 c 183.387 123.684 183.93 124.414 184.836 124.414 c 186.156
 124.414 186.934 123.438 186.934 123.324 c 186.934 123.27 186.879 123.203
 186.824 123.203 c 186.777 123.203 186.758 123.223 186.703 123.297 c 185.973
 124.211 184.965 124.211 184.855 124.211 c 184.133 124.211 184.051 123.438
 184.051 123.141 c 184.051 123.031 184.059 122.742 184.199 122.18 c h
184.688 122.18 m f*
192.066 119.516 m 192.086 119.516 l 192.105 119.512 l 192.16 119.512 l 
192.172 119.508 l 192.18 119.508 l 192.191 119.504 l 192.203 119.504 l 192.215
 119.5 l 192.223 119.496 l 192.234 119.496 l 192.242 119.492 l 192.254 119.488
 l 192.262 119.48 l 192.27 119.477 l 192.301 119.445 l 192.305 119.438 l
 192.305 119.434 l 192.312 119.426 l 192.312 119.422 l 192.316 119.414 l
 192.316 119.402 l 192.32 119.398 l 192.32 119.387 l 192.324 119.379 l 192.324
 119.355 l 192.324 119.199 192.176 119.199 192.066 119.199 c 188.215 119.199
 l 188.109 119.199 187.957 119.199 187.957 119.352 c 187.957 119.516 188.102
 119.516 188.215 119.516 c h
192.066 119.516 m f*
223.621 118.191 m 223.621 118.102 l 223.617 118.094 l 223.617 118.059 l
 223.613 118.047 l 223.613 118.035 l 223.609 118.027 l 223.609 118.02 l 
223.605 118.008 l 223.598 117.992 l 223.582 117.977 l 223.566 117.969 l 
223.562 117.965 l 223.555 117.961 l 223.547 117.961 l 223.543 117.957 l 
223.531 117.957 l 223.527 117.953 l 223.5 117.953 l 223.492 117.949 l 223.41
 117.949 l 222.836 118.539 222.023 118.539 221.727 118.539 c 221.727 118.828
 l 221.914 118.828 222.457 118.828 222.938 118.586 c 222.938 123.375 l 222.938
 123.707 222.91 123.816 222.078 123.816 c 221.781 123.816 l 221.781 124.105
 l 222.105 124.074 222.91 124.074 223.277 124.074 c 223.648 124.074 224.453
 124.074 224.777 124.105 c 224.777 123.816 l 224.48 123.816 l 223.648 123.816
 223.621 123.719 223.621 123.375 c h
223.621 118.191 m f*
227.262 121.969 m 227.453 121.969 l 227.492 121.965 l 227.531 121.965 l
 227.574 121.961 l 227.617 121.961 l 227.703 121.953 l 227.754 121.949 l
 227.895 121.938 l 227.996 121.926 l 228.199 121.895 l 228.297 121.871 l
 228.398 121.852 l 228.492 121.82 l 228.543 121.809 l 228.586 121.793 l 
228.633 121.777 l 228.676 121.758 l 229.32 121.48 229.367 120.938 229.367
 120.809 c 229.367 120.398 229.02 120.023 228.379 120.023 c 228.379 120.227
 l 228.812 120.227 229.062 120.492 229.062 120.809 c 229.062 121.766 227.586
 121.766 227.207 121.766 c 226.824 121.766 l 227.188 120.363 228.141 120.227
 228.379 120.227 c 228.379 120.023 l 227.355 120.023 225.961 120.918 225.961
 122.535 c 225.961 123.477 226.504 124.207 227.41 124.207 c 228.73 124.207
 229.508 123.227 229.508 123.117 c 229.508 123.062 229.453 122.996 229.395
 122.996 c 229.352 122.996 229.332 123.016 229.277 123.09 c 228.543 124.004
 227.539 124.004 227.43 124.004 c 226.707 124.004 226.625 123.227 226.625
 122.93 c 226.625 122.82 226.633 122.535 226.773 121.969 c h
227.262 121.969 m f*
234.637 119.309 m 234.66 119.309 l 234.68 119.305 l 234.734 119.305 l 234.742
 119.301 l 234.754 119.301 l 234.766 119.297 l 234.777 119.297 l 234.785
 119.293 l 234.809 119.285 l 234.824 119.277 l 234.836 119.273 l 234.844
 119.27 l 234.852 119.262 l 234.855 119.254 l 234.871 119.238 l 234.875 
119.238 l 234.879 119.23 l 234.879 119.227 l 234.887 119.219 l 234.887 119.207
 l 234.891 119.203 l 234.891 119.191 l 234.895 119.184 l 234.895 119.148
 l 234.895 118.988 234.75 118.988 234.637 118.988 c 230.789 118.988 l 230.684
 118.988 230.531 118.988 230.531 119.145 c 230.531 119.309 230.676 119.309
 230.789 119.309 c h
234.637 119.309 m f*
267.621 121.523 m 267.621 121.246 l 267.617 121.109 l 267.609 120.973 l
 267.602 120.832 l 267.59 120.695 l 267.559 120.422 l 267.535 120.285 l 
267.512 120.152 l 267.48 120.02 l 267.445 119.883 l 267.406 119.75 l 267.359
 119.621 l 267.309 119.492 l 267.281 119.426 l 267.25 119.363 l 266.828 
118.473 266.07 118.324 265.68 118.324 c 265.129 118.324 264.453 118.566 
264.07 119.426 c 263.777 120.062 263.73 120.785 263.73 121.523 c 263.73 
122.219 263.766 123.047 264.148 123.75 c 264.543 124.496 265.219 124.684
 265.672 124.684 c 265.672 124.48 l 265.312 124.48 264.762 124.25 264.598
 123.363 c 264.5 122.809 264.5 121.961 264.5 121.41 c 264.5 120.82 264.5
 120.211 264.574 119.715 c 264.746 118.613 265.441 118.531 265.672 118.531
 c 265.977 118.531 266.586 118.695 266.762 119.613 c 266.855 120.129 266.855
 120.832 266.855 121.41 c 266.855 122.105 266.855 122.734 266.754 123.324
 c 266.613 124.203 266.086 124.48 265.672 124.48 c 265.672 124.684 l 266.168
 124.684 266.871 124.488 267.281 123.609 c 267.574 122.977 267.621 122.254
 267.621 121.523 c h
267.621 121.523 m f*
269.727 122.348 m 269.754 122.344 l 269.918 122.344 l 269.957 122.34 l 
269.996 122.34 l 270.039 122.336 l 270.082 122.336 l 270.125 122.332 l 270.266
 122.32 l 270.363 122.312 l 270.461 122.301 l 270.664 122.27 l 270.766 122.246
 l 270.863 122.227 l 270.91 122.211 l 270.957 122.199 l 271.008 122.184 
l 271.051 122.168 l 271.098 122.152 l 271.141 122.133 l 271.789 121.855 
271.836 121.312 271.836 121.184 c 271.836 120.773 271.484 120.398 270.848
 120.398 c 270.848 120.602 l 271.281 120.602 271.531 120.867 271.531 121.184
 c 271.531 122.141 270.051 122.141 269.672 122.141 c 269.293 122.141 l 269.656
 120.738 270.605 120.602 270.848 120.602 c 270.848 120.398 l 269.82 120.398
 268.426 121.293 268.426 122.91 c 268.426 123.852 268.969 124.582 269.875
 124.582 c 271.195 124.582 271.973 123.602 271.973 123.492 c 271.973 123.438
 271.918 123.371 271.863 123.371 c 271.816 123.371 271.801 123.391 271.742
 123.465 c 271.012 124.379 270.004 124.379 269.895 124.379 c 269.172 124.379
 269.09 123.602 269.09 123.309 c 269.09 123.195 269.098 122.91 269.238 122.348
 c h
269.727 122.348 m f*
277.105 119.684 m 277.125 119.684 l 277.145 119.68 l 277.199 119.68 l 277.211
 119.676 l 277.223 119.676 l 277.23 119.672 l 277.242 119.672 l 277.254 
119.668 l 277.262 119.664 l 277.273 119.66 l 277.281 119.656 l 277.293 119.656
 l 277.301 119.648 l 277.309 119.645 l 277.332 119.621 l 277.336 119.621
 l 277.336 119.617 l 277.34 119.613 l 277.344 119.605 l 277.344 119.602 
l 277.352 119.594 l 277.352 119.586 l 277.355 119.582 l 277.355 119.57 l
 277.359 119.566 l 277.359 119.551 l 277.363 119.547 l 277.363 119.523 l
 277.363 119.363 277.215 119.363 277.105 119.363 c 273.254 119.363 l 273.148
 119.363 272.996 119.363 272.996 119.52 c 272.996 119.684 273.141 119.684
 273.254 119.684 c h
277.105 119.684 m f*
83.262 74.027 m 84.047 73.266 l 85.199 72.246 85.645 71.844 85.645 71.105
 c 85.645 70.258 84.98 69.668 84.074 69.668 c 83.238 69.668 82.691 70.352
 82.691 71.008 c 82.691 71.422 83.062 71.422 83.082 71.422 c 83.211 71.422
 83.469 71.332 83.469 71.031 c 83.469 70.836 83.336 70.645 83.074 70.645
 c 83.02 70.645 83 70.645 82.98 70.652 c 83.148 70.172 83.547 69.898 83.98
 69.898 c 84.652 69.898 84.973 70.5 84.973 71.105 c 84.973 71.695 84.602
 72.281 84.195 72.742 c 82.773 74.324 l 82.691 74.406 82.691 74.422 82.691
 74.598 c 85.438 74.598 l 85.645 73.309 l 85.461 73.309 l 85.422 73.531 
85.371 73.859 85.297 73.969 c 85.242 74.027 84.758 74.027 84.594 74.027 
c h
83.262 74.027 m f*
87.301 71.816 m 87.301 71.328 l 86.238 71.406 l 86.238 71.637 l 86.762 
71.637 86.816 71.684 86.816 72.008 c 86.816 75.473 l 86.816 75.809 86.734
 75.809 86.238 75.809 c 86.238 76.035 l 86.488 76.027 86.871 76.012 87.066
 76.012 c 87.266 76.012 87.645 76.027 87.902 76.035 c 87.902 75.809 l 87.406
 75.809 87.324 75.809 87.324 75.473 c 87.324 74.16 l 87.43 74.066 l 87.324
 73.91 87.324 73.902 87.324 73.758 c 87.324 72.102 l 87.539 71.727 87.902
 71.512 88.281 71.512 c 88.82 71.512 89.273 72.164 89.273 73 c 89.273 73.895
 88.754 74.516 88.207 74.516 c 87.91 74.516 87.629 74.367 87.43 74.066 c
 87.324 74.16 l 87.363 74.281 87.672 74.68 88.234 74.68 c 89.117 74.68 89.887
 73.957 89.887 73 c 89.887 72.059 89.168 71.328 88.34 71.328 c 87.762 71.328
 87.449 71.652 87.301 71.816 c h
87.301 71.816 m f*
1 g
92.125 69.449 7.086 7.086 re f
0 g
q 1 0 0 1 0 0 cm
92.125 69.449 7.086 7.086 re S Q
1 g
99.211 69.449 7.09 7.086 re f
0 g
q 1 0 0 1 0 0 cm
99.211 69.449 7.09 7.086 re S Q
1 g
106.301 69.449 7.086 7.086 re f
0 g
q 1 0 0 1 0 0 cm
106.301 69.449 7.086 7.086 re S Q
1 g
99.211 83.621 7.09 7.086 re f
0 g
q 1 0 0 1 0 0 cm
99.211 83.621 7.09 7.086 re S Q
83.004 89.598 m 83.789 88.836 l 84.941 87.816 85.387 87.414 85.387 86.676
 c 85.387 85.828 84.723 85.238 83.816 85.238 c 82.98 85.238 82.43 85.922
 82.43 86.578 c 82.43 86.992 82.805 86.992 82.824 86.992 c 82.953 86.992
 83.211 86.906 83.211 86.602 c 83.211 86.406 83.078 86.215 82.816 86.215
 c 82.758 86.215 82.742 86.215 82.723 86.223 c 82.891 85.742 83.289 85.469
 83.723 85.469 c 84.395 85.469 84.715 86.07 84.715 86.676 c 84.715 87.266
 84.344 87.852 83.938 88.312 c 82.516 89.895 l 82.43 89.977 82.43 89.992
 82.43 90.168 c 85.18 90.168 l 85.387 88.883 l 85.203 88.883 l 85.164 89.105
 85.113 89.43 85.039 89.539 c 84.984 89.598 84.5 89.598 84.336 89.598 c 
h
83.004 89.598 m f*
87.312 88.73 m 87.328 88.734 l 87.367 88.742 l 87.391 88.75 l 87.414 88.754
 l 87.469 88.77 l 87.531 88.785 l 87.625 88.82 l 87.66 88.836 l 87.691 88.852
 l 87.727 88.867 l 87.758 88.883 l 87.789 88.906 l 87.82 88.926 l 87.852
 88.949 l 87.879 88.973 l 87.91 89 l 87.938 89.027 l 87.961 89.055 l 87.984
 89.086 l 88.004 89.121 l 88.016 89.137 l 88.023 89.156 l 88.035 89.176 
l 88.043 89.191 l 88.047 89.215 l 88.062 89.254 l 88.066 89.273 l 88.078
 89.344 l 88.078 89.367 l 88.082 89.391 l 88.082 89.414 l 88.082 89.789 
87.82 90.086 87.246 90.086 c 86.625 90.086 86.355 89.664 86.215 89.035 c
 86.195 88.941 86.188 88.91 86.113 88.91 c 86.016 88.91 86.016 88.961 86.016
 89.098 c 86.016 90.074 l 86.016 90.199 86.016 90.25 86.098 90.25 c 86.133
 90.25 86.141 90.242 86.281 90.102 c 86.297 90.086 86.297 90.074 86.43 89.934
 c 86.754 90.242 87.09 90.25 87.246 90.25 c 88.098 90.25 88.438 89.754 88.438
 89.223 c 88.438 88.832 88.215 88.609 88.125 88.52 c 87.883 88.281 87.594
 88.223 87.281 88.164 c 86.867 88.082 86.371 87.984 86.371 87.555 c 86.371
 87.297 86.562 86.992 87.199 86.992 c 88.016 86.992 88.051 87.66 88.066 
87.891 c 88.074 87.957 88.141 87.957 88.156 87.957 c 88.25 87.957 88.25 
87.918 88.25 87.777 c 88.25 87.031 l 88.25 86.906 88.25 86.855 88.172 86.855
 c 88.133 86.855 88.117 86.855 88.023 86.941 c 88 86.973 87.926 87.035 87.895
 87.059 c 87.613 86.855 87.312 86.855 87.199 86.855 c 86.297 86.855 86.016
 87.348 86.016 87.762 c 86.016 88.023 86.133 88.23 86.332 88.395 c 86.57
 88.586 86.781 88.629 87.312 88.73 c h
87.312 88.73 m f*
1 g
99.211 104.883 7.09 7.086 re f
0 g
q 1 0 0 1 0 0 cm
99.211 104.883 7.09 7.086 re S Q
86.203 105.914 m 86.203 105.84 l 86.199 105.832 l 86.199 105.805 l 86.195
 105.793 l 86.195 105.777 l 86.188 105.762 l 86.188 105.754 l 86.18 105.746
 l 86.176 105.738 l 86.172 105.734 l 86.156 105.727 l 86.152 105.723 l 86.141
 105.723 l 86.137 105.719 l 86.125 105.719 l 86.121 105.715 l 86.062 105.715
 l 86.055 105.711 l 86.023 105.711 l 85.539 106.211 84.848 106.211 84.602
 106.211 c 84.602 106.457 l 84.758 106.457 85.219 106.457 85.621 106.25 
c 85.621 110.305 l 85.621 110.586 85.602 110.68 84.898 110.68 c 84.645 110.68
 l 84.645 110.922 l 84.922 110.898 85.602 110.898 85.914 110.898 c 86.227
 110.898 86.906 110.898 87.18 110.922 c 87.18 110.68 l 86.93 110.68 l 86.227
 110.68 86.203 110.594 86.203 110.305 c h
86.203 105.914 m f*
89.449 109.406 m 89.465 109.406 l 89.484 109.41 l 89.508 109.418 l 89.531
 109.422 l 89.559 109.43 l 89.586 109.434 l 89.617 109.441 l 89.648 109.453
 l 89.68 109.461 l 89.715 109.473 l 89.746 109.484 l 89.781 109.496 l 89.852
 109.527 l 89.922 109.566 l 89.953 109.586 l 89.988 109.609 l 90.051 109.656
 l 90.109 109.715 l 90.137 109.746 l 90.184 109.816 l 90.195 109.832 l 90.219
 109.891 l 90.227 109.914 l 90.234 109.934 l 90.242 109.957 l 90.246 109.977
 l 90.25 110 l 90.258 110.023 l 90.258 110.051 l 90.262 110.074 l 90.262
 110.125 l 90.262 110.523 89.988 110.836 89.379 110.836 c 88.723 110.836
 88.441 110.391 88.289 109.727 c 88.27 109.625 88.262 109.594 88.184 109.594
 c 88.078 109.594 88.078 109.648 88.078 109.789 c 88.078 110.824 l 88.078
 110.953 88.078 111.012 88.164 111.012 c 88.203 111.012 88.211 111.004 88.359
 110.852 c 88.375 110.836 88.375 110.824 88.52 110.676 c 88.863 111.004 
89.215 111.012 89.379 111.012 c 90.277 111.012 90.637 110.484 90.637 109.922
 c 90.637 109.508 90.402 109.273 90.309 109.18 c 90.051 108.93 89.746 108.863
 89.418 108.805 c 88.98 108.719 88.457 108.613 88.457 108.16 c 88.457 107.887
 88.656 107.566 89.332 107.566 c 90.191 107.566 90.23 108.27 90.246 108.516
 c 90.258 108.586 90.324 108.586 90.34 108.586 c 90.441 108.586 90.441 108.547
 90.441 108.398 c 90.441 107.605 l 90.441 107.473 90.441 107.422 90.355 
107.422 c 90.316 107.422 90.301 107.422 90.199 107.512 c 90.18 107.547 90.098
 107.613 90.066 107.637 c 89.77 107.422 89.449 107.422 89.332 107.422 c 
88.375 107.422 88.078 107.941 88.078 108.383 c 88.078 108.656 88.203 108.875
 88.414 109.047 c 88.664 109.25 88.887 109.297 89.449 109.406 c h
89.449 109.406 m f*
84.863 58.996 m 84.926 58.977 l 84.98 58.953 l 85.039 58.93 l 85.094 58.906
 l 85.148 58.875 l 85.203 58.848 l 85.254 58.816 l 85.305 58.781 l 85.398
 58.711 l 85.445 58.672 l 85.531 58.594 l 85.57 58.551 l 85.609 58.512 l
 85.648 58.465 l 85.68 58.418 l 85.715 58.371 l 85.746 58.324 l 85.773 58.277
 l 85.805 58.227 l 85.852 58.125 l 85.871 58.07 l 85.891 58.02 l 85.922 
57.91 l 85.93 57.855 l 85.941 57.801 l 85.945 57.742 l 85.949 57.688 l 85.953
 57.629 l 85.953 56.992 85.266 56.559 84.523 56.559 c 83.738 56.559 83.148
 57.023 83.148 57.613 c 83.148 57.871 83.32 58.02 83.543 58.02 c 83.781 
58.02 83.938 57.848 83.938 57.621 c 83.938 57.234 83.574 57.234 83.461 57.234
 c 83.699 56.855 84.211 56.75 84.492 56.75 c 84.809 56.75 85.238 56.922 
85.238 57.621 c 85.238 57.715 85.219 58.164 85.02 58.508 c 84.785 58.883
 84.523 58.902 84.328 58.914 c 84.266 58.922 84.082 58.934 84.023 58.934
 c 83.965 58.941 83.906 58.949 83.906 59.027 c 83.906 59.113 83.965 59.113
 84.094 59.113 c 84.438 59.113 l 85.074 59.113 85.363 59.641 85.363 60.402
 c 85.363 61.457 84.824 61.684 84.484 61.684 c 84.148 61.684 83.566 61.551
 83.297 61.094 c 83.566 61.133 83.809 60.961 83.809 60.664 c 83.809 60.387
 83.598 60.23 83.371 60.23 c 83.188 60.23 82.938 60.34 82.938 60.684 c 82.938
 61.391 83.66 61.898 84.508 61.898 c 85.453 61.898 86.16 61.195 86.16 60.402
 c 86.16 59.766 85.672 59.16 84.863 58.996 c h
84.863 58.996 m f*
88.117 60.223 m 88.137 60.227 l 88.152 60.23 l 88.199 60.238 l 88.254 60.254
 l 88.348 60.277 l 88.379 60.289 l 88.414 60.301 l 88.484 60.332 l 88.516
 60.348 l 88.551 60.363 l 88.586 60.383 l 88.617 60.402 l 88.652 60.426 
l 88.715 60.473 l 88.773 60.531 l 88.801 60.562 l 88.824 60.594 l 88.844
 60.629 l 88.867 60.668 l 88.891 60.727 l 88.898 60.75 l 88.906 60.77 l 
88.922 60.863 l 88.922 60.887 l 88.926 60.914 l 88.926 60.938 l 88.926 61.332
 88.652 61.645 88.051 61.645 c 87.395 61.645 87.117 61.203 86.969 60.543
 c 86.945 60.441 86.938 60.41 86.859 60.41 c 86.758 60.41 86.758 60.465 
86.758 60.605 c 86.758 61.629 l 86.758 61.762 86.758 61.816 86.844 61.816
 c 86.883 61.816 86.891 61.809 87.039 61.66 c 87.055 61.645 87.055 61.629
 87.195 61.484 c 87.535 61.809 87.887 61.816 88.051 61.816 c 88.941 61.816
 89.297 61.293 89.297 60.738 c 89.297 60.324 89.062 60.094 88.973 60 c 88.715
 59.75 88.414 59.688 88.086 59.625 c 87.652 59.539 87.133 59.438 87.133 
58.988 c 87.133 58.719 87.332 58.398 88 58.398 c 88.855 58.398 88.895 59.098
 88.906 59.34 c 88.918 59.41 88.984 59.41 89.004 59.41 c 89.102 59.41 89.102
 59.371 89.102 59.223 c 89.102 58.438 l 89.102 58.305 89.102 58.254 89.02
 58.254 c 88.98 58.254 88.965 58.254 88.863 58.344 c 88.84 58.379 88.762
 58.445 88.73 58.469 c 88.438 58.254 88.117 58.254 88 58.254 c 87.055 58.254
 86.758 58.773 86.758 59.207 c 86.758 59.477 86.883 59.695 87.094 59.867
 c 87.34 60.07 87.559 60.117 88.117 60.223 c h
88.117 60.223 m f*
1 g
99.211 55.277 7.09 7.086 re f
0 g
q 1 0 0 1 0 0 cm
99.211 55.277 7.09 7.086 re S Q
96.199 120.887 m 96.262 120.852 l 96.324 120.82 l 96.441 120.75 l 96.551
 120.68 l 96.605 120.641 l 96.656 120.605 l 96.707 120.566 l 96.754 120.523
 l 96.801 120.484 l 96.848 120.441 l 96.891 120.402 l 96.934 120.359 l 96.973
 120.316 l 97.008 120.27 l 97.047 120.227 l 97.141 120.086 l 97.168 120.035
 l 97.195 119.988 l 97.215 119.938 l 97.238 119.887 l 97.254 119.836 l 97.273
 119.781 l 97.289 119.73 l 97.297 119.676 l 97.309 119.625 l 97.312 119.566
 l 97.316 119.512 l 97.32 119.453 l 97.32 118.602 96.496 118.074 95.656 
118.074 c 95.648 118.305 l 96.324 118.305 96.914 118.789 96.914 119.453 
c 96.914 119.98 96.551 120.422 96 120.746 c 94.852 120.008 l 94.426 119.73
 94.387 119.418 94.387 119.258 c 94.387 118.695 94.992 118.305 95.648 118.305
 c 95.656 118.074 l 94.73 118.074 93.984 118.758 93.984 119.621 c 93.984
 119.785 94 120.203 94.387 120.637 c 94.488 120.746 94.832 120.98 95.062
 121.137 c 95.277 121.273 l 96.414 121.992 l 96.672 122.172 97.105 122.449
 97.105 123.012 c 97.105 123.695 96.414 124.176 95.656 124.176 c 94.859 
124.176 94.195 123.602 94.195 122.836 c 94.195 122.301 94.488 121.711 95.277
 121.273 c 95.062 121.137 l 94.527 121.402 93.734 121.922 93.734 122.836
 c 93.734 123.816 94.676 124.434 95.648 124.434 c 96.691 124.434 97.566 
123.664 97.566 122.68 c 97.566 122.348 97.469 121.93 97.117 121.543 c 96.938
 121.348 96.793 121.254 96.199 120.887 c h
96.199 120.887 m f*
99.703 122.098 m 99.727 122.094 l 99.895 122.094 l 99.934 122.09 l 99.973
 122.09 l 100.016 122.086 l 100.055 122.086 l 100.102 122.082 l 100.145 
122.078 l 100.195 122.074 l 100.238 122.07 l 100.336 122.062 l 100.438 122.051
 l 100.535 122.035 l 100.641 122.02 l 100.738 121.996 l 100.836 121.977 
l 100.887 121.961 l 100.934 121.949 l 101.074 121.902 l 101.117 121.883 
l 101.762 121.605 101.809 121.062 101.809 120.934 c 101.809 120.523 101.457
 120.148 100.82 120.148 c 100.82 120.352 l 101.254 120.352 101.504 120.617
 101.504 120.934 c 101.504 121.891 100.027 121.891 99.648 121.891 c 99.266
 121.891 l 99.629 120.488 100.578 120.352 100.82 120.352 c 100.82 120.148
 l 99.797 120.148 98.398 121.043 98.398 122.66 c 98.398 123.602 98.945 124.332
 99.852 124.332 c 101.172 124.332 101.949 123.352 101.949 123.242 c 101.949
 123.188 101.895 123.121 101.836 123.121 c 101.789 123.121 101.773 123.141
 101.715 123.215 c 100.984 124.129 99.98 124.129 99.871 124.129 c 99.148
 124.129 99.062 123.352 99.062 123.059 c 99.062 122.945 99.074 122.66 99.211
 122.098 c h
99.703 122.098 m f*
107.078 119.434 m 107.098 119.434 l 107.121 119.43 l 107.176 119.43 l 107.184
 119.426 l 107.195 119.426 l 107.207 119.422 l 107.219 119.422 l 107.227
 119.418 l 107.238 119.414 l 107.246 119.41 l 107.258 119.406 l 107.266 
119.406 l 107.277 119.398 l 107.305 119.371 l 107.309 119.371 l 107.316 
119.363 l 107.32 119.355 l 107.32 119.348 l 107.324 119.344 l 107.328 119.336
 l 107.328 119.332 l 107.332 119.328 l 107.332 119.316 l 107.336 119.309
 l 107.336 119.273 l 107.336 119.113 107.191 119.113 107.078 119.113 c 103.227
 119.113 l 103.121 119.113 102.969 119.113 102.969 119.27 c 102.969 119.434
 103.117 119.434 103.227 119.434 c h
107.078 119.434 m f*
136.828 121.238 m 136.828 121.008 l 136.828 118.539 138.035 118.184 138.535
 118.184 c 138.766 118.184 139.176 118.242 139.391 118.578 c 139.25 118.578
 138.855 118.578 138.855 119.016 c 138.855 119.316 139.09 119.465 139.305
 119.465 c 139.461 119.465 139.75 119.375 139.75 118.996 c 139.75 118.41
 139.324 117.941 138.516 117.941 c 137.266 117.941 135.949 119.203 135.949
 121.355 c 135.949 123.961 137.082 124.652 137.988 124.652 c 139.07 124.652
 139.996 123.734 139.996 122.449 c 139.996 121.211 139.129 120.273 138.047
 120.273 c 138.035 120.5 l 138.191 120.5 138.641 120.5 138.945 121.105 c
 139.117 121.461 139.117 121.961 139.117 122.438 c 139.117 122.906 139.117
 123.395 138.953 123.746 c 138.66 124.328 138.215 124.379 137.988 124.379
 c 137.371 124.379 137.082 123.797 137.023 123.648 c 136.848 123.191 136.848
 122.41 136.848 122.234 c 136.848 121.473 137.156 120.5 138.035 120.5 c 
138.047 120.273 l 137.383 120.273 137.023 120.77 136.828 121.238 c h
136.828 121.238 m f*
142.25 122.184 m 142.375 122.184 l 142.41 122.18 l 142.492 122.18 l 142.531
 122.176 l 142.578 122.176 l 142.621 122.172 l 142.672 122.172 l 142.719
 122.168 l 142.77 122.164 l 142.816 122.16 l 142.918 122.148 l 143.023 122.137
 l 143.129 122.121 l 143.238 122.102 l 143.344 122.082 l 143.445 122.059
 l 143.496 122.043 l 143.551 122.027 l 143.602 122.012 l 143.695 121.98 
l 143.742 121.961 l 144.426 121.664 144.473 121.094 144.473 120.957 c 144.473
 120.527 144.102 120.129 143.43 120.129 c 143.43 120.344 l 143.887 120.344
 144.152 120.625 144.152 120.957 c 144.152 121.969 142.59 121.969 142.191
 121.969 c 141.789 121.969 l 142.172 120.488 143.176 120.344 143.43 120.344
 c 143.43 120.129 l 142.348 120.129 140.875 121.074 140.875 122.781 c 140.875
 123.773 141.449 124.547 142.406 124.547 c 143.801 124.547 144.621 123.512
 144.621 123.395 c 144.621 123.336 144.562 123.266 144.504 123.266 c 144.453
 123.266 144.438 123.289 144.375 123.363 c 143.605 124.328 142.543 124.328
 142.426 124.328 c 141.664 124.328 141.574 123.512 141.574 123.199 c 141.574
 123.082 141.586 122.781 141.73 122.184 c h
142.25 122.184 m f*
150.035 119.375 m 150.055 119.375 l 150.078 119.371 l 150.137 119.371 l
 150.145 119.367 l 150.156 119.367 l 150.168 119.363 l 150.18 119.363 l 
150.203 119.355 l 150.211 119.352 l 150.223 119.348 l 150.23 119.344 l 150.242
 119.34 l 150.25 119.332 l 150.258 119.328 l 150.277 119.309 l 150.277 119.305
 l 150.281 119.301 l 150.285 119.293 l 150.289 119.289 l 150.289 119.285
 l 150.293 119.281 l 150.297 119.273 l 150.297 119.27 l 150.301 119.262 
l 150.301 119.25 l 150.305 119.242 l 150.305 119.207 l 150.305 119.039 150.152
 119.039 150.035 119.039 c 145.969 119.039 l 145.859 119.039 145.699 119.039
 145.699 119.203 c 145.699 119.375 145.852 119.375 145.969 119.375 c h
150.035 119.375 m f*
1 g
142.254 104.883 7.086 7.086 re f
0 g
q 1 0 0 1 0 0 cm
142.254 104.883 7.086 7.086 re S Q
1 0 0 rg
0.510236 w
q 1 0 0 1 0 0 cm
144.805 105.992 m 144.805 111.051 l S Q
144.184 106.973 m 144.801 105.301 l 145.414 106.973 l 145.051 106.707 144.555
 106.707 144.184 106.973 c h
144.184 106.973 m f*
0.0956693 w
1 j
q 0 1 -1 0 0 0 cm
106.973 -144.184 m 105.301 -144.801 l 106.973 -145.414 l 106.707 -145.051
 106.707 -144.555 106.973 -144.184 c h
106.973 -144.184 m S Q
0.510236 w
0 j
q 1 0 0 1 0 0 cm
146.629 110.844 m 146.629 105.785 l S Q
147.246 109.863 m 146.633 111.535 l 146.02 109.863 l 146.379 110.129 146.879
 110.129 147.246 109.863 c h
147.246 109.863 m f*
0.0956693 w
1 j
q 0 -1 1 0 0 0 cm
-109.863 147.246 m -111.535 146.633 l -109.863 146.02 l -110.129 146.379
 -110.129 146.879 -109.863 147.246 c h
-109.863 147.246 m S Q
1 g
184.254 104.883 7.086 7.086 re f
0 g
0.751181 w
0 j
q 1 0 0 1 0 0 cm
184.254 104.883 7.086 7.086 re S Q
0.510236 w
q 1 0 0 1 0 0 cm
186.801 105.992 m 186.801 111.051 l S Q
186.184 106.973 m 186.801 105.301 l 187.414 106.973 l 187.051 106.707 186.555
 106.707 186.184 106.973 c h
186.184 106.973 m f*
0.0956693 w
1 j
q 0 1 -1 0 0 0 cm
106.973 -186.184 m 105.301 -186.801 l 106.973 -187.414 l 106.707 -187.051
 106.707 -186.555 106.973 -186.184 c h
106.973 -186.184 m S Q
0.510236 w
0 j
q 1 0 0 1 0 0 cm
188.629 110.844 m 188.629 105.785 l S Q
189.246 109.863 m 188.633 111.535 l 188.016 109.863 l 188.379 110.129 188.875
 110.129 189.246 109.863 c h
189.246 109.863 m f*
0.0956693 w
1 j
q 0 -1 1 0 0 0 cm
-109.863 189.246 m -111.535 188.633 l -109.863 188.016 l -110.129 188.379
 -110.129 188.875 -109.863 189.246 c h
-109.863 189.246 m S Q
1 g
184.254 83.621 7.086 7.086 re f
0 g
0.751181 w
0 j
q 1 0 0 1 0 0 cm
184.254 83.621 7.086 7.086 re S Q
1 g
184.254 83.621 7.086 7.086 re f
0 g
q 1 0 0 1 0 0 cm
184.254 83.621 7.086 7.086 re S Q
1 0 0 rg
0.510236 w
q 1 0 0 1 0 0 cm
186.801 84.73 m 186.801 89.793 l S Q
186.184 85.715 m 186.801 84.043 l 187.414 85.715 l 187.051 85.445 186.555
 85.449 186.184 85.715 c h
186.184 85.715 m f*
0.0956693 w
1 j
q 0 1 -1 0 0 0 cm
85.715 -186.184 m 84.043 -186.801 l 85.715 -187.414 l 85.445 -187.051 85.449
 -186.555 85.715 -186.184 c h
85.715 -186.184 m S Q
0.510236 w
0 j
q 1 0 0 1 0 0 cm
188.629 89.586 m 188.629 84.523 l S Q
189.246 88.602 m 188.633 90.273 l 188.016 88.602 l 188.379 88.867 188.875
 88.867 189.246 88.602 c h
189.246 88.602 m f*
0.0956693 w
1 j
q 0 -1 1 0 0 0 cm
-88.602 189.246 m -90.273 188.633 l -88.602 188.016 l -88.867 188.379 -88.867
 188.875 -88.602 189.246 c h
-88.602 189.246 m S Q
Q Q
showpage
%%Trailer
end
%%EOF
