%!PS-Adobe-3.0 EPSF-3.0
%%Creator: cairo 1.15.10 (http://cairographics.org)
%%CreationDate: Mon May 11 22:38:04 2020
%%Pages: 1
%%DocumentData: Clean7Bit
%%LanguageLevel: 2
%%BoundingBox: 62 478 256 662
%%EndComments
%%BeginProlog
50 dict begin
/q { gsave } bind def
/Q { grestore } bind def
/cm { 6 array astore concat } bind def
/w { setlinewidth } bind def
/J { setlinecap } bind def
/j { setlinejoin } bind def
/M { setmiterlimit } bind def
/d { setdash } bind def
/m { moveto } bind def
/l { lineto } bind def
/c { curveto } bind def
/h { closepath } bind def
/re { exch dup neg 3 1 roll 5 3 roll moveto 0 rlineto
      0 exch rlineto 0 rlineto closepath } bind def
/S { stroke } bind def
/f { fill } bind def
/f* { eofill } bind def
/n { newpath } bind def
/W { clip } bind def
/W* { eoclip } bind def
/BT { } bind def
/ET { } bind def
/BDC { mark 3 1 roll /BDC pdfmark } bind def
/EMC { mark /EMC pdfmark } bind def
/cairo_store_point { /cairo_point_y exch def /cairo_point_x exch def } def
/Tj { show currentpoint cairo_store_point } bind def
/TJ {
  {
    dup
    type /stringtype eq
    { show } { -0.001 mul 0 cairo_font_matrix dtransform rmoveto } ifelse
  } forall
  currentpoint cairo_store_point
} bind def
/cairo_selectfont { cairo_font_matrix aload pop pop pop 0 0 6 array astore
    cairo_font exch selectfont cairo_point_x cairo_point_y moveto } bind def
/Tf { pop /cairo_font exch def /cairo_font_matrix where
      { pop cairo_selectfont } if } bind def
/Td { matrix translate cairo_font_matrix matrix concatmatrix dup
      /cairo_font_matrix exch def dup 4 get exch 5 get cairo_store_point
      /cairo_font where { pop cairo_selectfont } if } bind def
/Tm { 2 copy 8 2 roll 6 array astore /cairo_font_matrix exch def
      cairo_store_point /cairo_font where { pop cairo_selectfont } if } bind def
/g { setgray } bind def
/rg { setrgbcolor } bind def
/d1 { setcachedevice } bind def
/cairo_data_source {
  CairoDataIndex CairoData length lt
    { CairoData CairoDataIndex get /CairoDataIndex CairoDataIndex 1 add def }
    { () } ifelse
} def
/cairo_flush_ascii85_file { cairo_ascii85_file status { cairo_ascii85_file flushfile } if } def
/cairo_image { image cairo_flush_ascii85_file } def
/cairo_imagemask { imagemask cairo_flush_ascii85_file } def
%%EndProlog
%%BeginSetup
%%EndSetup
%%Page: 1 1
%%BeginPageSetup
%%PageBoundingBox: 62 478 256 662
%%EndPageSetup
q 62 478 194 184 rectclip
1 0 0 -1 0 842 cm q
0 g
175.922 261.637 m 175.922 261.367 l 175.93 261.238 l 175.941 261.109 l 
175.957 260.891 l 175.973 260.777 l 176 260.684 l 176.023 260.582 l 176.059
 260.5 l 176.094 260.414 l 176.145 260.336 l 176.195 260.262 l 176.262 260.191
 l 176.332 260.125 l 176.406 260.062 l 176.5 260.012 l 176.602 259.961 l
 176.652 259.938 l 176.715 259.91 l 176.773 259.895 l 176.832 259.867 l 
176.902 259.852 l 176.969 259.836 l 177.035 259.816 l 177.191 259.785 l 
177.273 259.766 l 177.359 259.75 l 177.445 259.742 l 177.539 259.734 l 177.641
 259.715 l 177.734 259.707 l 177.844 259.699 l 177.945 259.691 l 178.059
 259.684 l 178.176 259.672 l 178.297 259.664 l 178.414 259.664 l 178.551
 259.656 l 178.68 259.656 l 178.812 259.648 l 180.508 259.648 l 180.508 
258.328 l 179.02 258.465 175.676 258.465 174.059 258.465 c 172.418 258.465
 169.066 258.465 167.582 258.328 c 167.582 259.648 l 168.688 259.648 l 172.027
 259.648 172.164 260.105 172.164 261.637 c 172.164 283.961 l 172.164 285.492
 172.027 285.949 168.688 285.949 c 167.582 285.949 l 167.582 287.27 l 169.066
 287.133 172.418 287.133 174.027 287.133 c 175.676 287.133 179.02 287.133
 180.508 287.27 c 180.508 285.949 l 179.41 285.949 l 176.059 285.949 175.922
 285.492 175.922 283.961 c h
175.922 261.637 m f*
1 g
155.301 272.914 m 142.859 285.5 126.594 294.258 109.238 297.715 c 99.434
 299.672 88.93 299.895 79.77 295.883 c 75.191 293.879 71.039 290.816 68.023
 286.828 c 65.008 282.84 63.176 277.914 63.176 272.914 c 63.176 267.914 
65.008 262.984 68.023 259 c 71.039 255.012 75.191 251.949 79.77 249.941 
c 88.93 245.93 99.434 246.156 109.238 248.109 c 126.594 251.57 142.859 260.328
 155.301 272.914 c h
155.301 272.914 m f
1 0 0 rg
1.700787 w
0 J
0 j
[] 0.0 d
4 M q 1 0 0 1 0 0 cm
155.301 272.914 m 142.859 285.5 126.594 294.258 109.238 297.715 c 99.434
 299.672 88.93 299.895 79.77 295.883 c 75.191 293.879 71.039 290.816 68.023
 286.828 c 65.008 282.84 63.176 277.914 63.176 272.914 c 63.176 267.914 
65.008 262.984 68.023 259 c 71.039 255.012 75.191 251.949 79.77 249.941 
c 88.93 245.93 99.434 246.156 109.238 248.109 c 126.594 251.57 142.859 260.328
 155.301 272.914 c h
155.301 272.914 m S Q
89.883 272.949 m 89.883 275.555 87.77 277.668 85.164 277.668 c 82.559 277.668
 80.445 275.555 80.445 272.949 c 80.445 270.344 82.559 268.23 85.164 268.23
 c 87.77 268.23 89.883 270.344 89.883 272.949 c h
89.883 272.949 m f
1.132577 w
q 1 0 0 1 0 0 cm
89.883 272.949 m 89.883 275.555 87.77 277.668 85.164 277.668 c 82.559 277.668
 80.445 275.555 80.445 272.949 c 80.445 270.344 82.559 268.23 85.164 268.23
 c 87.77 268.23 89.883 270.344 89.883 272.949 c h
89.883 272.949 m S Q
104.859 272.836 m 104.859 275.445 102.746 277.559 100.141 277.559 c 97.535
 277.559 95.422 275.445 95.422 272.836 c 95.422 270.23 97.535 268.117 100.141
 268.117 c 102.746 268.117 104.859 270.23 104.859 272.836 c h
104.859 272.836 m f
1.132577 w
q 1 0 0 1 0 0 cm
104.859 272.836 m 104.859 275.445 102.746 277.559 100.141 277.559 c 97.535
 277.559 95.422 275.445 95.422 272.836 c 95.422 270.23 97.535 268.117 100.141
 268.117 c 102.746 268.117 104.859 270.23 104.859 272.836 c h
104.859 272.836 m S Q
0 g
1.700787 w
q 1 0 0 1 0 0 cm
174.027 212.883 m 174.027 255.402 l S Q
q 1 0 0 1 0 0 cm
174.027 288.543 m 174.027 331.062 l S Q
183.438 279.688 m 191.941 285.359 216.195 304.254 224.699 309.922 c 224.699
 309.922 225.961 308.035 225.961 308.035 c 225.961 308.035 227.219 306.145
 227.219 306.145 c 218.715 300.477 191.941 285.359 183.438 279.688 c h
183.438 279.688 m f
184.254 267.875 m 192.758 262.203 219.527 247.086 228.031 241.414 c 228.031
 241.414 226.773 239.527 226.773 239.527 c 226.773 239.527 225.512 237.641
 225.512 237.641 c 217.008 243.309 192.758 262.203 184.254 267.875 c h
184.254 267.875 m f
1 g
211.566 239.195 m 217.355 235.27 l 233.254 258.742 l 227.461 262.664 l 
h
211.566 239.195 m f
201.863 244.797 m 207.656 240.871 l 223.555 264.344 l 217.762 268.266 l
 h
201.863 244.797 m f
191.754 251.09 m 197.547 247.168 l 213.445 270.637 l 207.652 274.559 l 
h
191.754 251.09 m f
0 g
q 1 0 0 1 0 0 cm
174.027 212.758 m 174.027 255.277 l S Q
q 1 0 0 1 0 0 cm
174.027 288.414 m 174.027 330.934 l S Q
183.438 279.562 m 191.941 285.23 216.195 304.125 224.699 309.797 c 224.699
 309.797 225.961 307.906 225.961 307.906 c 225.961 307.906 227.219 306.02
 227.219 306.02 c 218.715 300.348 191.941 285.23 183.438 279.562 c h
183.438 279.562 m f
1 g
201.863 244.668 m 207.656 240.746 l 223.555 264.215 l 217.762 268.137 l
 h
201.863 244.668 m f
0 g
186.871 352.07 m 185.809 352.07 l 185.34 356.406 184.746 361.688 177.289
 361.688 c 173.828 361.688 l 171.828 361.688 171.734 361.398 171.734 360.004
 c 171.734 337.418 l 171.734 335.98 171.734 335.387 175.766 335.387 c 177.168
 335.387 l 177.168 334.066 l 175.648 334.203 171.785 334.203 170.051 334.203
 c 168.402 334.203 165.094 334.203 163.605 334.066 c 163.605 335.387 l 164.625
 335.387 l 167.883 335.387 167.977 335.844 167.977 337.375 c 167.977 359.699
 l 167.977 361.23 167.883 361.688 164.625 361.688 c 163.605 361.688 l 163.605
 363.008 l 185.672 363.008 l h
186.871 352.07 m f*
255.477 318.137 m 254.414 318.137 l 253.945 322.473 253.352 327.754 245.895
 327.754 c 242.434 327.754 l 240.434 327.754 240.34 327.465 240.34 326.07
 c 240.34 303.484 l 240.34 302.047 240.34 301.453 244.371 301.453 c 245.773
 301.453 l 245.773 300.133 l 244.254 300.27 240.391 300.27 238.656 300.27
 c 237.008 300.27 233.699 300.27 232.211 300.133 c 232.211 301.453 l 233.23
 301.453 l 236.488 301.453 236.582 301.91 236.582 303.441 c 236.582 325.766
 l 236.582 327.297 236.488 327.754 233.23 327.754 c 232.211 327.754 l 232.211
 329.074 l 254.277 329.074 l h
255.477 318.137 m f*
255.477 233.227 m 254.414 233.227 l 253.945 237.562 253.352 242.844 245.895
 242.844 c 242.434 242.844 l 240.434 242.844 240.34 242.555 240.34 241.16
 c 240.34 218.574 l 240.34 217.137 240.34 216.543 244.371 216.543 c 245.773
 216.543 l 245.773 215.223 l 244.254 215.359 240.391 215.359 238.656 215.359
 c 237.008 215.359 233.699 215.359 232.211 215.223 c 232.211 216.543 l 233.23
 216.543 l 236.488 216.543 236.582 217 236.582 218.531 c 236.582 240.855
 l 236.582 242.383 236.488 242.844 233.23 242.844 c 232.211 242.844 l 232.211
 244.16 l 254.277 244.16 l h
255.477 233.227 m f*
189.602 198.254 m 188.535 198.254 l 188.07 202.59 187.473 207.871 180.016
 207.871 c 176.555 207.871 l 174.555 207.871 174.461 207.582 174.461 206.188
 c 174.461 183.602 l 174.461 182.164 174.461 181.566 178.492 181.566 c 179.898
 181.566 l 179.898 180.25 l 178.375 180.387 174.516 180.387 172.777 180.387
 c 171.129 180.387 167.82 180.387 166.332 180.25 c 166.332 181.566 l 167.352
 181.566 l 170.609 181.566 170.703 182.027 170.703 183.559 c 170.703 205.879
 l 170.703 207.41 170.609 207.871 167.352 207.871 c 166.332 207.871 l 166.332
 209.188 l 188.402 209.188 l h
189.602 198.254 m f*
Q Q
showpage
%%Trailer
end
%%EOF
