%!PS-Adobe-3.0 EPSF-3.0
%%Creator: cairo 1.15.10 (http://cairographics.org)
%%CreationDate: Wed May 27 12:59:29 2020
%%Pages: 1
%%DocumentData: Clean7Bit
%%LanguageLevel: 2
%%BoundingBox: 134 439 227 548
%%EndComments
%%BeginProlog
50 dict begin
/q { gsave } bind def
/Q { grestore } bind def
/cm { 6 array astore concat } bind def
/w { setlinewidth } bind def
/J { setlinecap } bind def
/j { setlinejoin } bind def
/M { setmiterlimit } bind def
/d { setdash } bind def
/m { moveto } bind def
/l { lineto } bind def
/c { curveto } bind def
/h { closepath } bind def
/re { exch dup neg 3 1 roll 5 3 roll moveto 0 rlineto
      0 exch rlineto 0 rlineto closepath } bind def
/S { stroke } bind def
/f { fill } bind def
/f* { eofill } bind def
/n { newpath } bind def
/W { clip } bind def
/W* { eoclip } bind def
/BT { } bind def
/ET { } bind def
/BDC { mark 3 1 roll /BDC pdfmark } bind def
/EMC { mark /EMC pdfmark } bind def
/cairo_store_point { /cairo_point_y exch def /cairo_point_x exch def } def
/Tj { show currentpoint cairo_store_point } bind def
/TJ {
  {
    dup
    type /stringtype eq
    { show } { -0.001 mul 0 cairo_font_matrix dtransform rmoveto } ifelse
  } forall
  currentpoint cairo_store_point
} bind def
/cairo_selectfont { cairo_font_matrix aload pop pop pop 0 0 6 array astore
    cairo_font exch selectfont cairo_point_x cairo_point_y moveto } bind def
/Tf { pop /cairo_font exch def /cairo_font_matrix where
      { pop cairo_selectfont } if } bind def
/Td { matrix translate cairo_font_matrix matrix concatmatrix dup
      /cairo_font_matrix exch def dup 4 get exch 5 get cairo_store_point
      /cairo_font where { pop cairo_selectfont } if } bind def
/Tm { 2 copy 8 2 roll 6 array astore /cairo_font_matrix exch def
      cairo_store_point /cairo_font where { pop cairo_selectfont } if } bind def
/g { setgray } bind def
/rg { setrgbcolor } bind def
/d1 { setcachedevice } bind def
/cairo_data_source {
  CairoDataIndex CairoData length lt
    { CairoData CairoDataIndex get /CairoDataIndex CairoDataIndex 1 add def }
    { () } ifelse
} def
/cairo_flush_ascii85_file { cairo_ascii85_file status { cairo_ascii85_file flushfile } if } def
/cairo_image { image cairo_flush_ascii85_file } def
/cairo_imagemask { imagemask cairo_flush_ascii85_file } def
%%EndProlog
%%BeginSetup
%%EndSetup
%%Page: 1 1
%%BeginPageSetup
%%PageBoundingBox: 134 439 227 548
%%EndPageSetup
q 134 439 93 109 rectclip
1 0 0 -1 0 842 cm q
0 g
0.650105 w
0 J
0 j
[] 0.0 d
4 M q 1 0 0 1 0 0 cm
137.883 402.938 m 137.883 296.445 l S Q
137.883 302.949 m 140.484 305.547 l 137.883 296.445 l 135.285 305.547 l
 h
137.883 302.949 m f*
0.693445 w
q 0 1 -1 0 0 0 cm
302.949 -137.883 m 305.547 -140.484 l 296.445 -137.883 l 305.547 -135.285
 l h
302.949 -137.883 m S Q
142.598 305.863 m 142.598 305.965 l 142.594 306.016 l 142.594 306.066 l
 142.59 306.109 l 142.586 306.148 l 142.582 306.191 l 142.57 306.23 l 142.562
 306.27 l 142.551 306.301 l 142.535 306.336 l 142.52 306.363 l 142.5 306.395
 l 142.48 306.418 l 142.453 306.445 l 142.426 306.469 l 142.391 306.488 
l 142.352 306.508 l 142.332 306.52 l 142.312 306.527 l 142.219 306.559 l
 142.191 306.562 l 142.16 306.57 l 142.133 306.578 l 142.102 306.582 l 142.07
 306.59 l 142.035 306.594 l 142.004 306.598 l 141.934 306.605 l 141.891 
306.609 l 141.852 306.613 l 141.723 306.625 l 141.578 306.625 l 141.527 
306.629 l 140.91 306.629 l 140.91 307.141 l 150.352 307.141 l 151.039 302.914
 l 150.625 302.914 l 150.223 305.434 149.844 306.629 147.031 306.629 c 144.859
 306.629 l 144.086 306.629 144.051 306.52 144.051 305.98 c 144.051 301.609
 l 145.523 301.609 l 147.113 301.609 147.293 302.133 147.293 303.523 c 147.699
 303.523 l 147.699 299.188 l 147.293 299.188 l 147.293 300.598 147.113 301.102
 145.523 301.102 c 144.051 301.102 l 144.051 297.176 l 144.051 296.637 144.086
 296.523 144.859 296.523 c 146.965 296.523 l 149.469 296.523 149.91 297.422
 150.172 299.695 c 150.582 299.695 l 150.121 296.016 l 140.91 296.016 l 
140.91 296.523 l 141.305 296.523 l 142.562 296.523 142.598 296.703 142.598
 297.289 c h
142.598 305.863 m f*
0.75 w
q 1 0 0 1 0 0 cm
161.223 381.773 m 175.395 381.773 l S Q
0.732317 w
q 1 0 0 1 0 0 cm
166.73 374.832 m 166.73 389.004 l S Q
165.844 376.242 m 166.727 373.84 l 167.609 376.242 l 167.09 375.855 166.375
 375.859 165.844 376.242 c h
165.844 376.242 m f*
0.137309 w
1 j
q 0 1 -1 0 0 0 cm
376.242 -165.844 m 373.84 -166.727 l 376.242 -167.609 l 375.855 -167.09
 375.859 -166.375 376.242 -165.844 c h
376.242 -165.844 m S Q
0.732317 w
0 j
q 1 0 0 1 0 0 cm
170.078 388.348 m 170.078 374.172 l S Q
170.965 386.938 m 170.082 389.336 l 169.199 386.938 l 169.719 387.32 170.434
 387.316 170.965 386.938 c h
170.965 386.938 m f*
0.137309 w
1 j
q 0 -1 1 0 0 0 cm
-386.938 170.965 m -389.336 170.082 l -386.938 169.199 l -387.32 169.719
 -387.316 170.434 -386.938 170.965 c h
-386.938 170.965 m S Q
0.75 w
0 j
q 1 0 0 1 0 0 cm
182.48 381.773 m 196.656 381.773 l S Q
0.732317 w
q 1 0 0 1 0 0 cm
187.992 374.832 m 187.992 389.004 l S Q
187.105 376.242 m 187.988 373.84 l 188.871 376.242 l 188.348 375.855 187.637
 375.859 187.105 376.242 c h
187.105 376.242 m f*
0.137309 w
1 j
q 0 1 -1 0 0 0 cm
376.242 -187.105 m 373.84 -187.988 l 376.242 -188.871 l 375.855 -188.348
 375.859 -187.637 376.242 -187.105 c h
376.242 -187.105 m S Q
0.732317 w
0 j
q 1 0 0 1 0 0 cm
191.34 388.348 m 191.34 374.172 l S Q
192.227 386.938 m 191.344 389.336 l 190.461 386.938 l 190.98 387.32 191.695
 387.316 192.227 386.938 c h
192.227 386.938 m f*
0.137309 w
1 j
q 0 -1 1 0 0 0 cm
-386.938 192.227 m -389.336 191.344 l -386.938 190.461 l -387.32 190.98
 -387.316 191.695 -386.938 192.227 c h
-386.938 192.227 m S Q
0.75 w
0 j
q 1 0 0 1 0 0 cm
203.742 381.773 m 217.914 381.773 l S Q
0.732317 w
q 1 0 0 1 0 0 cm
209.25 374.832 m 209.25 389.004 l S Q
208.363 376.242 m 209.246 373.84 l 210.129 376.242 l 209.609 375.855 208.895
 375.859 208.363 376.242 c h
208.363 376.242 m f*
0.137309 w
1 j
q 0 1 -1 0 0 0 cm
376.242 -208.363 m 373.84 -209.246 l 376.242 -210.129 l 375.855 -209.609
 375.859 -208.895 376.242 -208.363 c h
376.242 -208.363 m S Q
0.732317 w
0 j
q 1 0 0 1 0 0 cm
212.598 388.348 m 212.598 374.172 l S Q
213.484 386.938 m 212.602 389.336 l 211.719 386.938 l 212.242 387.32 212.953
 387.316 213.484 386.938 c h
213.484 386.938 m f*
0.137309 w
1 j
q 0 -1 1 0 0 0 cm
-386.938 213.484 m -389.336 212.602 l -386.938 211.719 l -387.32 212.242
 -387.316 212.953 -386.938 213.484 c h
-386.938 213.484 m S Q
0.75 w
0 j
q 1 0 0 1 0 0 cm
168.309 332.164 m 182.48 332.164 l S Q
0.732317 w
q 1 0 0 1 0 0 cm
173.816 325.223 m 173.816 339.398 l S Q
172.93 326.633 m 173.812 324.234 l 174.695 326.633 l 174.176 326.25 173.461
 326.254 172.93 326.633 c h
172.93 326.633 m f*
0.137309 w
1 j
q 0 1 -1 0 0 0 cm
326.633 -172.93 m 324.234 -173.812 l 326.633 -174.695 l 326.25 -174.176
 326.254 -173.461 326.633 -172.93 c h
326.633 -172.93 m S Q
0.732317 w
0 j
q 1 0 0 1 0 0 cm
177.164 338.738 m 177.164 324.566 l S Q
178.051 337.328 m 177.168 339.73 l 176.285 337.328 l 176.809 337.715 177.52
 337.711 178.051 337.328 c h
178.051 337.328 m f*
0.137309 w
1 j
q 0 -1 1 0 0 0 cm
-337.328 178.051 m -339.73 177.168 l -337.328 176.285 l -337.715 176.809
 -337.711 177.52 -337.328 178.051 c h
-337.328 178.051 m S Q
0.75 w
0 j
q 1 0 0 1 0 0 cm
196.656 332.164 m 210.828 332.164 l S Q
0.732317 w
q 1 0 0 1 0 0 cm
202.164 325.223 m 202.164 339.398 l S Q
201.277 326.633 m 202.16 324.234 l 203.043 326.633 l 202.523 326.25 201.809
 326.254 201.277 326.633 c h
201.277 326.633 m f*
0.137309 w
1 j
q 0 1 -1 0 0 0 cm
326.633 -201.277 m 324.234 -202.16 l 326.633 -203.043 l 326.25 -202.523
 326.254 -201.809 326.633 -201.277 c h
326.633 -201.277 m S Q
0.732317 w
0 j
q 1 0 0 1 0 0 cm
205.512 338.738 m 205.512 324.566 l S Q
206.398 337.328 m 205.516 339.73 l 204.633 337.328 l 205.152 337.715 205.867
 337.711 206.398 337.328 c h
206.398 337.328 m f*
0.137309 w
1 j
q 0 -1 1 0 0 0 cm
-337.328 206.398 m -339.73 205.516 l -337.328 204.633 l -337.715 205.152
 -337.711 205.867 -337.328 206.398 c h
-337.328 206.398 m S Q
1 0 0 rg
0.480424 w
0 j
q 1 0 0 1 0 0 cm
215.723 378.891 m 215.723 378.891 219.691 368.438 219.691 358.262 c 219.691
 348.086 211.18 336.371 211.18 336.371 c S Q
211.715 339.09 m 210.801 335.859 l 213.59 337.727 l 212.738 337.723 211.984
 338.273 211.715 339.09 c h
211.715 339.09 m f*
0.145719 w
1 j
q 0.727012 1 -1 0.727012 0 0 cm
322.534 22.772 m 319.986 21.833 l 322.534 20.897 l 322.127 21.452 322.129
 22.207 322.534 22.772 c h
322.534 22.772 m S Q
0.75 w
0 j
q 1 0 0 1 0 0 cm
212.598 352.914 m 226.773 360 l S Q
q 1 0 0 1 0 0 cm
226.773 352.914 m 212.598 360 l S Q
0 g
162.387 355.875 m 163.289 355.012 l 163.328 354.973 163.594 354.715 163.996
 354.711 c 163.996 354.555 l 163.867 354.57 163.707 354.57 163.57 354.57
 c 163.391 354.57 163.109 354.57 162.938 354.555 c 162.938 354.711 l 163.141
 354.715 163.168 354.832 163.168 354.875 c 163.168 354.953 163.117 355.004
 163.078 355.039 c 161.516 356.535 l 161.516 354.945 l 161.516 354.766 161.523
 354.711 161.91 354.711 c 162.027 354.711 l 162.027 354.555 l 161.855 354.57
 161.484 354.57 161.293 354.57 c 161.105 354.57 160.73 354.57 160.555 354.555
 c 160.555 354.711 l 160.676 354.711 l 161.059 354.711 161.07 354.766 161.07
 354.945 c 161.07 357.578 l 161.07 357.758 161.059 357.812 160.676 357.812
 c 160.555 357.812 l 160.555 357.969 l 160.73 357.949 161.102 357.949 161.289
 357.949 c 161.48 357.949 161.855 357.949 162.027 357.969 c 162.027 357.812
 l 161.91 357.812 l 161.523 357.812 161.516 357.758 161.516 357.578 c 161.516
 356.703 l 162.094 356.156 l 162.996 357.492 l 163.027 357.539 163.074 357.602
 163.074 357.66 c 163.074 357.812 162.879 357.812 162.777 357.812 c 162.777
 357.969 l 162.953 357.949 163.305 357.949 163.492 357.949 c 163.668 357.949
 163.859 357.957 164.066 357.969 c 164.066 357.812 l 163.797 357.812 163.691
 357.793 163.543 357.57 c h
162.387 355.875 m f*
164.832 356.812 m 164.836 356.707 l 164.863 355.965 165.285 355.84 165.457
 355.84 c 165.969 355.84 166.02 356.512 166.02 356.707 c 164.836 356.707
 l 164.832 356.812 l 166.223 356.812 l 166.336 356.812 166.348 356.812 166.348
 356.707 c 166.348 356.215 166.078 355.73 165.457 355.73 c 164.875 355.73
 164.414 356.242 164.414 356.871 c 164.414 357.539 164.941 358.023 165.516
 358.023 c 166.125 358.023 166.348 357.469 166.348 357.375 c 166.348 357.324
 166.309 357.312 166.285 357.312 c 166.238 357.312 166.23 357.344 166.219
 357.383 c 166.043 357.898 165.594 357.898 165.543 357.898 c 165.293 357.898
 165.094 357.746 164.98 357.562 c 164.832 357.324 164.832 356.992 164.832
 356.812 c h
164.832 356.812 m f*
167.371 355.762 m 166.676 355.816 l 166.676 355.969 l 167 355.969 167.043
 356 167.043 356.242 c 167.043 357.59 l 167.043 357.812 166.988 357.812 
166.652 357.812 c 166.652 357.969 l 166.812 357.961 167.082 357.949 167.203
 357.949 c 167.379 357.949 167.551 357.961 167.723 357.969 c 167.723 357.812
 l 167.395 357.812 167.371 357.785 167.371 357.594 c h
167.371 355.762 m f*
167.395 354.891 m 167.395 354.875 l 167.391 354.863 l 167.391 354.848 l
 167.387 354.832 l 167.383 354.82 l 167.383 354.809 l 167.375 354.793 l 
167.367 354.77 l 167.352 354.746 l 167.348 354.738 l 167.34 354.727 l 167.305
 354.691 l 167.293 354.684 l 167.285 354.676 l 167.262 354.66 l 167.25 354.656
 l 167.238 354.648 l 167.23 354.645 l 167.215 354.641 l 167.191 354.633 
l 167.18 354.633 l 167.168 354.629 l 167.156 354.629 l 167.141 354.625 l
 167.129 354.625 l 166.973 354.625 166.863 354.762 166.863 354.891 c 166.863
 355.027 166.973 355.156 167.129 355.156 c 167.27 355.156 167.395 355.051
 167.395 354.891 c h
167.395 354.891 m f*
168.422 356.25 m 168.422 357.59 l 168.422 357.812 168.367 357.812 168.031
 357.812 c 168.031 357.969 l 168.207 357.961 168.461 357.949 168.598 357.949
 c 168.727 357.949 168.984 357.961 169.156 357.969 c 169.156 357.812 l 168.82
 357.812 168.766 357.812 168.766 357.59 c 168.766 356.668 l 168.766 356.148
 169.121 355.871 169.441 355.871 c 169.754 355.871 169.809 356.141 169.809
 356.426 c 169.809 357.59 l 169.809 357.812 169.754 357.812 169.418 357.812
 c 169.418 357.969 l 169.594 357.961 169.852 357.949 169.984 357.949 c 170.117
 357.949 170.375 357.961 170.543 357.969 c 170.543 357.812 l 170.285 357.812
 170.16 357.812 170.156 357.66 c 170.156 356.707 l 170.156 356.277 170.156
 356.125 170 355.945 c 169.93 355.859 169.766 355.762 169.477 355.762 c 
169.109 355.762 168.875 355.977 168.738 356.281 c 168.738 355.762 l 168.031
 355.816 l 168.031 355.969 l 168.383 355.969 168.422 356.004 168.422 356.25
 c h
168.422 356.25 m f*
173.949 353.613 m 173.949 353.578 l 173.945 353.566 l 173.945 353.555 l
 173.941 353.543 l 173.938 353.535 l 173.934 353.523 l 173.926 353.512 l
 173.922 353.5 l 173.918 353.492 l 173.91 353.48 l 173.906 353.473 l 173.898
 353.461 l 173.891 353.453 l 173.883 353.441 l 173.867 353.426 l 173.855
 353.418 l 173.848 353.41 l 173.836 353.402 l 173.824 353.398 l 173.816 
353.391 l 173.805 353.387 l 173.793 353.379 l 173.77 353.371 l 173.754 353.367
 l 173.742 353.367 l 173.73 353.363 l 173.703 353.363 l 173.562 353.363 
173.449 353.473 173.449 353.613 c 173.449 353.754 173.562 353.863 173.703
 353.863 c 173.852 353.863 173.949 353.734 173.949 353.613 c h
173.949 353.613 m f*
174.914 353.613 m 174.914 353.586 l 174.91 353.574 l 174.91 353.562 l 174.902
 353.539 l 174.898 353.523 l 174.895 353.516 l 174.887 353.492 l 174.879
 353.48 l 174.871 353.473 l 174.867 353.461 l 174.852 353.445 l 174.844 
353.434 l 174.832 353.426 l 174.816 353.41 l 174.805 353.406 l 174.797 353.398
 l 174.785 353.395 l 174.773 353.387 l 174.766 353.383 l 174.75 353.379 
l 174.742 353.375 l 174.73 353.371 l 174.715 353.367 l 174.703 353.367 l
 174.691 353.363 l 174.664 353.363 l 174.516 353.363 174.414 353.492 174.414
 353.613 c 174.414 353.734 174.516 353.863 174.664 353.863 c 174.805 353.863
 174.914 353.754 174.914 353.613 c h
174.914 353.613 m f*
175.219 356.812 m 175.219 356.879 l 175.215 356.941 l 175.207 357.004 l
 175.195 357.062 l 175.188 357.121 l 175.172 357.18 l 175.156 357.234 l 
175.137 357.285 l 175.113 357.336 l 175.066 357.43 l 175.039 357.477 l 175.012
 357.52 l 174.949 357.598 l 174.918 357.633 l 174.883 357.668 l 174.848 
357.699 l 174.809 357.73 l 174.773 357.758 l 174.734 357.785 l 174.691 357.809
 l 174.652 357.828 l 174.566 357.867 l 174.523 357.879 l 174.48 357.895 
l 174.395 357.91 l 174.348 357.918 l 174.305 357.922 l 174.262 357.922 l
 174.027 357.922 173.434 357.797 173.434 356.848 c 173.434 354.945 l 173.434
 354.766 173.445 354.711 173.828 354.711 c 173.949 354.711 l 173.949 354.555
 l 173.773 354.57 173.406 354.57 173.215 354.57 c 173.027 354.57 172.652
 354.57 172.477 354.555 c 172.477 354.711 l 172.598 354.711 l 172.98 354.711
 172.992 354.766 172.992 354.945 c 172.992 356.828 l 172.992 357.531 173.57
 358.078 174.25 358.078 c 174.824 358.078 175.273 357.613 175.359 357.043
 c 175.375 356.941 175.375 356.898 175.375 356.699 c 175.375 355.102 l 175.375
 354.938 175.375 354.711 175.887 354.711 c 175.887 354.555 l 175.707 354.562
 175.469 354.57 175.301 354.57 c 175.125 354.57 174.883 354.562 174.703 
354.555 c 174.703 354.711 l 175.219 354.711 175.219 354.945 175.219 355.078
 c h
175.219 356.812 m f*
176.91 356.086 m 176.91 354.5 l 176.191 354.555 l 176.191 354.711 l 176.539
 354.711 176.582 354.746 176.582 354.992 c 176.582 357.969 l 176.707 357.969
 l 176.711 357.961 176.75 357.891 176.887 357.656 c 176.961 357.773 177.172
 358.023 177.539 358.023 c 177.52 357.91 l 177.297 357.91 177.117 357.793
 176.996 357.605 c 176.926 357.5 176.926 357.488 176.926 357.398 c 176.926
 356.367 l 176.926 356.273 176.926 356.27 176.98 356.191 c 177.176 355.91
 177.453 355.871 177.57 355.871 c 177.797 355.871 177.977 356 178.094 356.191
 c 178.227 356.395 178.242 356.68 178.242 356.883 c 178.242 357.066 178.23
 357.367 178.086 357.594 c 177.98 357.746 177.793 357.91 177.52 357.91 c
 177.539 358.023 l 178.137 358.023 178.652 357.531 178.652 356.887 c 178.652
 356.254 178.164 355.762 177.594 355.762 c 177.207 355.762 176.992 355.996
 176.91 356.086 c h
176.91 356.086 m f*
179.527 356.812 m 179.535 356.707 l 179.562 355.965 179.984 355.84 180.156
 355.84 c 180.668 355.84 180.719 356.512 180.719 356.707 c 179.535 356.707
 l 179.527 356.812 l 180.922 356.812 l 181.031 356.812 181.047 356.812 181.047
 356.707 c 181.047 356.215 180.777 355.73 180.156 355.73 c 179.574 355.73
 179.113 356.242 179.113 356.871 c 179.113 357.539 179.641 358.023 180.215
 358.023 c 180.824 358.023 181.047 357.469 181.047 357.375 c 181.047 357.324
 181.008 357.312 180.984 357.312 c 180.938 357.312 180.93 357.344 180.918
 357.383 c 180.742 357.898 180.293 357.898 180.242 357.898 c 179.992 357.898
 179.793 357.746 179.68 357.562 c 179.527 357.324 179.527 356.992 179.527
 356.812 c h
179.527 356.812 m f*
182.02 356.309 m 182.02 355.762 l 181.328 355.816 l 181.328 355.969 l 181.676
 355.969 181.719 356.004 181.719 356.25 c 181.719 357.59 l 181.719 357.812
 181.664 357.812 181.328 357.812 c 181.328 357.969 l 181.523 357.961 181.758
 357.949 181.898 357.949 c 182.098 357.949 182.332 357.949 182.531 357.969
 c 182.531 357.812 l 182.426 357.812 l 182.059 357.812 182.047 357.758 182.047
 357.578 c 182.047 356.809 l 182.047 356.316 182.258 355.871 182.637 355.871
 c 182.672 355.871 182.68 355.871 182.691 355.875 c 182.676 355.879 182.578
 355.938 182.578 356.07 c 182.578 356.211 182.68 356.281 182.793 356.281
 c 182.883 356.281 183.008 356.223 183.008 356.062 c 183.008 355.902 182.852
 355.762 182.637 355.762 c 182.273 355.762 182.094 356.094 182.02 356.309
 c h
182.02 356.309 m f*
183.68 357.305 m 183.68 357.258 l 183.684 357.254 l 183.684 357.23 l 183.688
 357.223 l 183.688 357.215 l 183.691 357.207 l 183.691 357.199 l 183.695
 357.191 l 183.699 357.18 l 183.707 357.164 l 183.711 357.152 l 183.719 
357.137 l 183.723 357.125 l 183.73 357.117 l 183.734 357.105 l 183.742 357.098
 l 183.75 357.086 l 183.754 357.078 l 183.762 357.066 l 183.957 357.207 
184.164 357.223 184.258 357.223 c 184.258 357.109 l 183.824 357.109 183.824
 356.609 183.824 356.492 c 183.824 356.359 183.828 356.199 183.902 356.074
 c 183.941 356.016 184.059 355.875 184.258 355.875 c 184.691 355.875 184.691
 356.375 184.691 356.488 c 184.691 356.621 184.688 356.781 184.613 356.91
 c 184.574 356.969 184.457 357.109 184.258 357.109 c 184.258 357.223 l 184.723
 357.223 185.066 356.879 185.066 356.492 c 185.066 356.309 184.984 356.125
 184.863 356.008 c 185.039 355.84 185.223 355.816 185.312 355.816 c 185.32
 355.816 185.348 355.816 185.363 355.82 c 185.305 355.84 185.281 355.895
 185.281 355.953 c 185.281 356.039 185.348 356.098 185.426 356.098 c 185.477
 356.098 185.57 356.062 185.57 355.949 c 185.57 355.863 185.512 355.707 
185.316 355.707 c 185.215 355.707 184.996 355.734 184.785 355.938 c 184.578
 355.773 184.367 355.762 184.258 355.762 c 183.793 355.762 183.449 356.105
 183.449 356.488 c 183.449 356.707 183.559 356.898 183.684 357.004 c 183.617
 357.078 183.527 357.242 183.527 357.418 c 183.527 357.57 183.594 357.762
 183.75 357.863 c 183.449 357.945 183.289 358.16 183.289 358.363 c 183.289
 358.723 183.785 358.996 184.395 358.996 c 184.398 358.883 l 183.895 358.883
 183.551 358.625 183.551 358.363 c 183.551 358.133 183.738 357.945 183.957
 357.934 c 184.254 357.934 l 184.684 357.934 185.242 357.934 185.242 358.363
 c 185.242 358.633 184.887 358.883 184.398 358.883 c 184.395 358.996 l 184.98
 358.996 185.5 358.742 185.5 358.352 c 185.5 358.176 185.43 357.922 185.18
 357.781 c 184.914 357.645 184.621 357.645 184.316 357.645 c 184.191 357.645
 183.977 357.645 183.941 357.637 c 183.785 357.617 183.68 357.461 183.68
 357.305 c h
183.68 357.305 m f*
187.312 357.59 m 187.316 357.605 l 187.328 357.664 l 187.332 357.68 l 187.336
 357.699 l 187.344 357.719 l 187.352 357.734 l 187.359 357.754 l 187.367
 357.77 l 187.375 357.789 l 187.383 357.805 l 187.43 357.867 l 187.441 357.879
 l 187.453 357.895 l 187.469 357.906 l 187.496 357.934 l 187.512 357.941
 l 187.531 357.953 l 187.547 357.961 l 187.566 357.969 l 187.582 357.977
 l 187.602 357.98 l 187.621 357.988 l 187.641 357.992 l 187.66 357.992 l
 187.684 357.996 l 187.703 357.996 l 187.809 357.996 188.113 357.926 188.113
 357.523 c 188.113 357.242 l 187.988 357.242 l 187.988 357.523 l 187.988
 357.812 187.863 357.84 187.809 357.84 c 187.645 357.84 187.621 357.617 
187.621 357.594 c 187.621 356.594 l 187.621 356.383 187.621 356.191 187.445
 356.004 c 187.246 355.812 187 355.73 186.758 355.73 c 186.348 355.73 186.004
 355.965 186.004 356.293 c 186.004 356.441 186.105 356.531 186.234 356.531
 c 186.375 356.531 186.465 356.43 186.465 356.301 c 186.465 356.238 186.441
 356.074 186.211 356.07 c 186.344 355.895 186.59 355.84 186.75 355.84 c 
186.992 355.84 187.277 356.035 187.277 356.48 c 187.277 357.27 l 187.277
 357.742 186.918 357.91 186.695 357.91 c 186.449 357.91 186.246 357.738 
186.246 357.488 c 186.246 357.215 186.453 356.797 187.277 356.77 c 187.277
 356.664 l 187.023 356.68 186.676 356.695 186.359 356.844 c 185.984 357.012
 185.859 357.273 185.859 357.492 c 185.859 357.898 186.344 358.023 186.66
 358.023 c 186.988 358.023 187.219 357.824 187.312 357.59 c h
187.312 357.59 m f*
188.703 356.25 m 188.703 357.59 l 188.703 357.812 188.648 357.812 188.312
 357.812 c 188.312 357.969 l 188.488 357.961 188.742 357.949 188.875 357.949
 c 189.008 357.949 189.266 357.961 189.434 357.969 c 189.434 357.812 l 189.102
 357.812 189.047 357.812 189.047 357.59 c 189.047 356.668 l 189.047 356.148
 189.402 355.871 189.719 355.871 c 190.035 355.871 190.09 356.141 190.09
 356.426 c 190.09 357.59 l 190.09 357.812 190.035 357.812 189.699 357.812
 c 189.699 357.969 l 189.875 357.961 190.129 357.949 190.266 357.949 c 190.395
 357.949 190.652 357.961 190.824 357.969 c 190.824 357.812 l 190.566 357.812
 190.438 357.812 190.434 357.66 c 190.434 356.707 l 190.434 356.277 190.434
 356.125 190.277 355.945 c 190.211 355.859 190.043 355.762 189.754 355.762
 c 189.391 355.762 189.156 355.977 189.016 356.281 c 189.016 355.762 l 188.312
 355.816 l 188.312 355.969 l 188.66 355.969 188.703 356.004 188.703 356.25
 c h
188.703 356.25 m f*
191.461 357.305 m 191.461 357.258 l 191.465 357.254 l 191.465 357.238 l
 191.469 357.23 l 191.469 357.223 l 191.473 357.215 l 191.473 357.207 l 
191.477 357.199 l 191.477 357.191 l 191.48 357.18 l 191.488 357.164 l 191.492
 357.152 l 191.5 357.137 l 191.508 357.125 l 191.512 357.117 l 191.516 357.105
 l 191.523 357.098 l 191.531 357.086 l 191.535 357.078 l 191.547 357.066
 l 191.742 357.207 191.945 357.223 192.039 357.223 c 192.039 357.109 l 191.605
 357.109 191.605 356.609 191.605 356.492 c 191.605 356.359 191.609 356.199
 191.684 356.074 c 191.727 356.016 191.84 355.875 192.039 355.875 c 192.473
 355.875 192.473 356.375 192.473 356.488 c 192.473 356.621 192.469 356.781
 192.395 356.91 c 192.355 356.969 192.238 357.109 192.039 357.109 c 192.039
 357.223 l 192.504 357.223 192.848 356.879 192.848 356.492 c 192.848 356.309
 192.77 356.125 192.645 356.008 c 192.824 355.84 193.004 355.816 193.094
 355.816 c 193.105 355.816 193.129 355.816 193.145 355.82 c 193.086 355.84
 193.062 355.895 193.062 355.953 c 193.062 356.039 193.129 356.098 193.207
 356.098 c 193.258 356.098 193.352 356.062 193.352 355.949 c 193.352 355.863
 193.293 355.707 193.098 355.707 c 193 355.707 192.777 355.734 192.57 355.938
 c 192.359 355.773 192.148 355.762 192.039 355.762 c 191.574 355.762 191.23
 356.105 191.23 356.488 c 191.23 356.707 191.34 356.898 191.465 357.004 
c 191.402 357.078 191.309 357.242 191.309 357.418 c 191.309 357.57 191.375
 357.762 191.531 357.863 c 191.23 357.945 191.07 358.16 191.07 358.363 c
 191.07 358.723 191.566 358.996 192.176 358.996 c 192.18 358.883 l 191.676
 358.883 191.332 358.625 191.332 358.363 c 191.332 358.133 191.52 357.945
 191.742 357.934 c 192.035 357.934 l 192.465 357.934 193.023 357.934 193.023
 358.363 c 193.023 358.633 192.668 358.883 192.18 358.883 c 192.176 358.996
 l 192.762 358.996 193.285 358.742 193.285 358.352 c 193.285 358.176 193.215
 357.922 192.961 357.781 c 192.695 357.645 192.406 357.645 192.098 357.645
 c 191.973 357.645 191.758 357.645 191.727 357.637 c 191.566 357.617 191.461
 357.461 191.461 357.305 c h
191.461 357.305 m f*
195.633 356.25 m 195.633 357.59 l 195.633 357.812 195.574 357.812 195.238
 357.812 c 195.238 357.969 l 195.414 357.961 195.672 357.949 195.805 357.949
 c 195.934 357.949 196.195 357.961 196.363 357.969 c 196.363 357.812 l 196.031
 357.812 195.977 357.812 195.977 357.59 c 195.977 356.668 l 195.977 356.148
 196.328 355.871 196.648 355.871 c 196.965 355.871 197.02 356.141 197.02
 356.426 c 197.02 357.59 l 197.02 357.812 196.965 357.812 196.629 357.812
 c 196.629 357.969 l 196.805 357.961 197.059 357.949 197.195 357.949 c 197.324
 357.949 197.582 357.961 197.754 357.969 c 197.754 357.812 l 197.418 357.812
 197.363 357.812 197.363 357.59 c 197.363 356.668 l 197.363 356.148 197.719
 355.871 198.039 355.871 c 198.352 355.871 198.406 356.141 198.406 356.426
 c 198.406 357.59 l 198.406 357.812 198.352 357.812 198.02 357.812 c 198.02
 357.969 l 198.191 357.961 198.445 357.949 198.582 357.949 c 198.711 357.949
 198.973 357.961 199.141 357.969 c 199.141 357.812 l 198.883 357.812 198.758
 357.812 198.754 357.66 c 198.754 356.707 l 198.754 356.277 198.754 356.125
 198.598 355.945 c 198.527 355.859 198.363 355.762 198.07 355.762 c 197.652
 355.762 197.434 356.059 197.348 356.25 c 197.277 355.816 196.91 355.762
 196.684 355.762 c 196.32 355.762 196.086 355.977 195.945 356.281 c 195.945
 355.762 l 195.238 355.816 l 195.238 355.969 l 195.59 355.969 195.633 356.004
 195.633 356.25 c h
195.633 356.25 m f*
200.258 354.875 m 200.258 354.863 l 200.254 354.852 l 200.254 354.84 l 
200.25 354.832 l 200.25 354.82 l 200.234 354.773 l 200.23 354.766 l 200.223
 354.754 l 200.219 354.746 l 200.203 354.723 l 200.188 354.707 l 200.18 
354.695 l 200.172 354.688 l 200.16 354.68 l 200.152 354.676 l 200.141 354.668
 l 200.133 354.66 l 200.121 354.652 l 200.074 354.637 l 200.059 354.633 
l 200.047 354.629 l 200.035 354.629 l 200.02 354.625 l 200.008 354.625 l
 199.867 354.625 199.758 354.734 199.758 354.875 c 199.758 355.016 199.867
 355.125 200.008 355.125 c 200.156 355.125 200.258 354.996 200.258 354.875
 c h
200.258 354.875 m f*
201.223 354.875 m 201.219 354.863 l 201.219 354.836 l 201.215 354.824 l
 201.215 354.812 l 201.203 354.777 l 201.195 354.766 l 201.191 354.754 l
 201.184 354.746 l 201.18 354.734 l 201.172 354.727 l 201.164 354.715 l 
201.133 354.684 l 201.109 354.668 l 201.102 354.66 l 201.09 354.656 l 201.078
 354.648 l 201.07 354.645 l 201.035 354.633 l 201.023 354.633 l 201.008 
354.629 l 200.996 354.629 l 200.984 354.625 l 200.973 354.625 l 200.82 354.625
 200.723 354.758 200.723 354.875 c 200.723 354.996 200.82 355.125 200.973
 355.125 c 201.109 355.125 201.223 355.016 201.223 354.875 c h
201.223 354.875 m f*
201.594 356.898 m 201.594 356.84 l 201.59 356.781 l 201.582 356.723 l 201.57
 356.664 l 201.547 356.555 l 201.508 356.445 l 201.461 356.344 l 201.406
 356.25 l 201.375 356.203 l 201.27 356.074 l 201.23 356.035 l 201.191 356
 l 201.148 355.965 l 201.062 355.902 l 201.016 355.871 l 200.965 355.848
 l 200.918 355.824 l 200.867 355.801 l 200.766 355.77 l 200.711 355.754 
l 200.656 355.742 l 200.602 355.738 l 200.547 355.73 l 200.492 355.73 l 
200.484 355.84 l 200.703 355.84 200.918 355.949 201.051 356.164 c 201.18
 356.379 201.18 356.668 201.18 356.859 c 201.18 357.039 201.18 357.309 201.07
 357.527 c 200.961 357.754 200.742 357.898 200.492 357.898 c 200.277 357.898
 200.055 357.793 199.922 357.562 c 199.797 357.344 199.797 357.039 199.797
 356.859 c 199.797 356.664 199.797 356.395 199.918 356.172 c 200.051 355.945
 200.285 355.84 200.484 355.84 c 200.492 355.73 l 199.867 355.73 199.383
 356.273 199.383 356.898 c 199.383 357.543 199.902 358.023 200.484 358.023
 c 201.09 358.023 201.594 357.531 201.594 356.898 c h
201.594 356.898 m f*
202.273 357.305 m 202.273 357.266 l 202.277 357.258 l 202.277 357.238 l
 202.281 357.23 l 202.281 357.223 l 202.285 357.215 l 202.285 357.207 l 
202.289 357.199 l 202.289 357.191 l 202.293 357.18 l 202.301 357.164 l 202.305
 357.152 l 202.312 357.137 l 202.32 357.125 l 202.324 357.117 l 202.328 
357.105 l 202.336 357.098 l 202.344 357.086 l 202.352 357.078 l 202.359 
357.066 l 202.555 357.207 202.758 357.223 202.852 357.223 c 202.852 357.109
 l 202.418 357.109 202.418 356.609 202.418 356.492 c 202.418 356.359 202.426
 356.199 202.496 356.074 c 202.539 356.016 202.652 355.875 202.852 355.875
 c 203.285 355.875 203.285 356.375 203.285 356.488 c 203.285 356.621 203.281
 356.781 203.207 356.91 c 203.168 356.969 203.051 357.109 202.852 357.109
 c 202.852 357.223 l 203.316 357.223 203.66 356.879 203.66 356.492 c 203.66
 356.309 203.582 356.125 203.457 356.008 c 203.637 355.84 203.816 355.816
 203.906 355.816 c 203.918 355.816 203.941 355.816 203.957 355.82 c 203.902
 355.84 203.879 355.895 203.879 355.953 c 203.879 356.039 203.941 356.098
 204.02 356.098 c 204.07 356.098 204.164 356.062 204.164 355.949 c 204.164
 355.863 204.105 355.707 203.91 355.707 c 203.812 355.707 203.594 355.734
 203.383 355.938 c 203.172 355.773 202.961 355.762 202.852 355.762 c 202.387
 355.762 202.043 356.105 202.043 356.488 c 202.043 356.707 202.152 356.898
 202.277 357.004 c 202.215 357.078 202.125 357.242 202.125 357.418 c 202.125
 357.57 202.188 357.762 202.344 357.863 c 202.043 357.945 201.883 358.16
 201.883 358.363 c 201.883 358.723 202.379 358.996 202.988 358.996 c 202.992
 358.883 l 202.488 358.883 202.145 358.625 202.145 358.363 c 202.145 358.133
 202.332 357.945 202.555 357.934 c 202.848 357.934 l 203.277 357.934 203.836
 357.934 203.836 358.363 c 203.836 358.633 203.484 358.883 202.992 358.883
 c 202.988 358.996 l 203.578 358.996 204.098 358.742 204.098 358.352 c 204.098
 358.176 204.027 357.922 203.773 357.781 c 203.508 357.645 203.219 357.645
 202.914 357.645 c 202.785 357.645 202.574 357.645 202.539 357.637 c 202.379
 357.617 202.273 357.461 202.273 357.305 c h
202.273 357.305 m f*
205.129 354.5 m 204.41 354.555 l 204.41 354.711 l 204.762 354.711 204.801
 354.746 204.801 354.992 c 204.801 357.59 l 204.801 357.812 204.746 357.812
 204.41 357.812 c 204.41 357.969 l 204.574 357.961 204.84 357.949 204.965
 357.949 c 205.09 357.949 205.336 357.961 205.52 357.969 c 205.52 357.812
 l 205.184 357.812 205.129 357.812 205.129 357.59 c h
205.129 354.5 m f*
206.512 355.762 m 205.812 355.816 l 205.812 355.969 l 206.137 355.969 206.184
 356 206.184 356.242 c 206.184 357.59 l 206.184 357.812 206.129 357.812 
205.793 357.812 c 205.793 357.969 l 205.953 357.961 206.223 357.949 206.344
 357.949 c 206.52 357.949 206.691 357.961 206.863 357.969 c 206.863 357.812
 l 206.531 357.812 206.512 357.785 206.512 357.594 c h
206.512 355.762 m f*
206.531 354.891 m 206.531 354.863 l 206.527 354.848 l 206.527 354.832 l
 206.52 354.809 l 206.516 354.793 l 206.512 354.781 l 206.504 354.77 l 206.5
 354.758 l 206.492 354.746 l 206.484 354.738 l 206.477 354.727 l 206.469
 354.719 l 206.461 354.707 l 206.453 354.699 l 206.441 354.691 l 206.434
 354.684 l 206.422 354.676 l 206.414 354.668 l 206.402 354.66 l 206.391 
354.656 l 206.379 354.648 l 206.332 354.633 l 206.32 354.633 l 206.305 354.629
 l 206.293 354.629 l 206.281 354.625 l 206.266 354.625 l 206.113 354.625
 206.004 354.762 206.004 354.891 c 206.004 355.027 206.113 355.156 206.266
 355.156 c 206.406 355.156 206.531 355.051 206.531 354.891 c h
206.531 354.891 m f*
207.594 356.879 m 207.598 356.84 l 207.598 356.77 l 207.605 356.699 l 207.605
 356.664 l 207.617 356.57 l 207.625 356.539 l 207.629 356.512 l 207.637 
356.48 l 207.648 356.426 l 207.68 356.324 l 207.738 356.195 l 207.809 356.09
 l 207.836 356.062 l 207.859 356.035 l 207.887 356.008 l 207.914 355.984
 l 207.969 355.945 l 207.996 355.93 l 208.027 355.914 l 208.055 355.898 
l 208.082 355.887 l 208.164 355.863 l 208.219 355.855 l 208.27 355.855 l
 208.316 355.855 208.629 355.859 208.805 356.039 c 208.602 356.055 208.57
 356.203 208.57 356.27 c 208.57 356.398 208.66 356.5 208.801 356.5 c 208.93
 356.5 209.027 356.414 209.027 356.266 c 209.027 355.926 208.648 355.73 
208.266 355.73 c 207.641 355.73 207.18 356.27 207.18 356.887 c 207.18 357.527
 207.676 358.023 208.254 358.023 c 208.922 358.023 209.086 357.422 209.086
 357.375 c 209.086 357.324 209.035 357.324 209.02 357.324 c 208.973 357.324
 208.965 357.344 208.953 357.375 c 208.809 357.836 208.484 357.898 208.301
 357.898 c 208.035 357.898 207.594 357.684 207.594 356.879 c h
207.594 356.879 m f*
209.629 357.59 m 209.629 357.664 l 209.625 357.676 l 209.625 357.691 l 
209.621 357.707 l 209.617 357.719 l 209.613 357.727 l 209.609 357.738 l 
209.602 357.75 l 209.594 357.758 l 209.59 357.766 l 209.582 357.773 l 209.57
 357.777 l 209.562 357.785 l 209.539 357.793 l 209.523 357.797 l 209.512
 357.801 l 209.496 357.801 l 209.48 357.805 l 209.461 357.805 l 209.453 
357.809 l 209.422 357.809 l 209.41 357.812 l 209.242 357.812 l 209.242 357.969
 l 209.414 357.961 209.668 357.949 209.805 357.949 c 209.934 357.949 210.195
 357.961 210.363 357.969 c 210.363 357.812 l 210.031 357.812 209.977 357.812
 209.977 357.59 c 209.977 356.668 l 209.977 356.148 210.328 355.871 210.648
 355.871 c 210.965 355.871 211.02 356.141 211.02 356.426 c 211.02 357.59
 l 211.02 357.812 210.965 357.812 210.629 357.812 c 210.629 357.969 l 210.805
 357.961 211.059 357.949 211.191 357.949 c 211.324 357.949 211.582 357.961
 211.754 357.969 c 211.754 357.812 l 211.492 357.812 211.367 357.812 211.363
 357.66 c 211.363 356.707 l 211.363 356.277 211.363 356.125 211.207 355.945
 c 211.141 355.859 210.973 355.762 210.684 355.762 c 210.266 355.762 210.043
 356.059 209.961 356.25 c 209.961 354.5 l 209.242 354.555 l 209.242 354.711
 l 209.59 354.711 209.629 354.746 209.629 354.992 c h
209.629 357.59 m f*
Q Q
showpage
%%Trailer
end
%%EOF
