%!PS-Adobe-3.0 EPSF-3.0
%%Creator: cairo 1.15.10 (http://cairographics.org)
%%CreationDate: Thu May  7 12:26:39 2020
%%Pages: 1
%%DocumentData: Clean7Bit
%%LanguageLevel: 2
%%BoundingBox: 17 799 114 817
%%EndComments
%%BeginProlog
50 dict begin
/q { gsave } bind def
/Q { grestore } bind def
/cm { 6 array astore concat } bind def
/w { setlinewidth } bind def
/J { setlinecap } bind def
/j { setlinejoin } bind def
/M { setmiterlimit } bind def
/d { setdash } bind def
/m { moveto } bind def
/l { lineto } bind def
/c { curveto } bind def
/h { closepath } bind def
/re { exch dup neg 3 1 roll 5 3 roll moveto 0 rlineto
      0 exch rlineto 0 rlineto closepath } bind def
/S { stroke } bind def
/f { fill } bind def
/f* { eofill } bind def
/n { newpath } bind def
/W { clip } bind def
/W* { eoclip } bind def
/BT { } bind def
/ET { } bind def
/BDC { mark 3 1 roll /BDC pdfmark } bind def
/EMC { mark /EMC pdfmark } bind def
/cairo_store_point { /cairo_point_y exch def /cairo_point_x exch def } def
/Tj { show currentpoint cairo_store_point } bind def
/TJ {
  {
    dup
    type /stringtype eq
    { show } { -0.001 mul 0 cairo_font_matrix dtransform rmoveto } ifelse
  } forall
  currentpoint cairo_store_point
} bind def
/cairo_selectfont { cairo_font_matrix aload pop pop pop 0 0 6 array astore
    cairo_font exch selectfont cairo_point_x cairo_point_y moveto } bind def
/Tf { pop /cairo_font exch def /cairo_font_matrix where
      { pop cairo_selectfont } if } bind def
/Td { matrix translate cairo_font_matrix matrix concatmatrix dup
      /cairo_font_matrix exch def dup 4 get exch 5 get cairo_store_point
      /cairo_font where { pop cairo_selectfont } if } bind def
/Tm { 2 copy 8 2 roll 6 array astore /cairo_font_matrix exch def
      cairo_store_point /cairo_font where { pop cairo_selectfont } if } bind def
/g { setgray } bind def
/rg { setrgbcolor } bind def
/d1 { setcachedevice } bind def
/cairo_data_source {
  CairoDataIndex CairoData length lt
    { CairoData CairoDataIndex get /CairoDataIndex CairoDataIndex 1 add def }
    { () } ifelse
} def
/cairo_flush_ascii85_file { cairo_ascii85_file status { cairo_ascii85_file flushfile } if } def
/cairo_image { image cairo_flush_ascii85_file } def
/cairo_imagemask { imagemask cairo_flush_ascii85_file } def
%%EndProlog
%%BeginSetup
%%EndSetup
%%Page: 1 1
%%BeginPageSetup
%%PageBoundingBox: 17 799 114 817
%%EndPageSetup
q 17 799 97 18 rectclip
1 0 0 -1 0 842 cm q
1 g
49.605 26.93 7.086 7.086 re f
0 g
0.751181 w
0 J
0 j
[] 0.0 d
4 M q 1 0 0 1 0 0 cm
49.605 26.93 7.086 7.086 re S Q
1 g
17.715 26.93 7.09 7.086 re f
0 g
q 1 0 0 1 0 0 cm
17.715 26.93 7.09 7.086 re S Q
0.510236 w
q 1 0 0 1 0 0 cm
20.266 28.039 m 20.266 33.098 l S Q
19.648 29.02 m 20.266 27.348 l 20.879 29.02 l 20.516 28.754 20.02 28.754
 19.648 29.02 c h
19.648 29.02 m f*
0.0956693 w
1 j
q 0 1 -1 0 0 0 cm
29.02 -19.648 m 27.348 -20.266 l 29.02 -20.879 l 28.754 -20.516 28.754 
-20.02 29.02 -19.648 c h
29.02 -19.648 m S Q
0.510236 w
0 j
q 1 0 0 1 0 0 cm
22.094 32.891 m 22.094 27.832 l S Q
22.711 31.91 m 22.098 33.582 l 21.48 31.91 l 21.844 32.176 22.34 32.176
 22.711 31.91 c h
22.711 31.91 m f*
0.0956693 w
1 j
q 0 -1 1 0 0 0 cm
-31.91 22.711 m -33.582 22.098 l -31.91 21.48 l -32.176 21.844 -32.176 
22.34 -31.91 22.711 c h
-31.91 22.711 m S Q
0.510236 w
0 j
q 1 0 0 1 0 0 cm
53.148 28.125 m 53.148 33.184 l S Q
52.531 29.105 m 53.148 27.434 l 53.762 29.105 l 53.398 28.84 52.902 28.84
 52.531 29.105 c h
52.531 29.105 m f*
0.0956693 w
1 j
q 0 1 -1 0 0 0 cm
29.105 -52.531 m 27.434 -53.148 l 29.105 -53.762 l 28.84 -53.398 28.84 
-52.902 29.105 -52.531 c h
29.105 -52.531 m S Q
1 g
35.434 26.93 7.086 7.086 re f
0 g
0.751181 w
0 j
q 1 0 0 1 0 0 cm
35.434 26.93 7.086 7.086 re S Q
0.510236 w
q 1 0 0 1 0 0 cm
37.984 28.039 m 37.984 33.098 l S Q
37.367 29.02 m 37.98 27.348 l 38.594 29.02 l 38.23 28.754 37.734 28.754
 37.367 29.02 c h
37.367 29.02 m f*
0.0956693 w
1 j
q 0 1 -1 0 0 0 cm
29.02 -37.367 m 27.348 -37.98 l 29.02 -38.594 l 28.754 -38.23 28.754 -37.734
 29.02 -37.367 c h
29.02 -37.367 m S Q
0.510236 w
0 j
q 1 0 0 1 0 0 cm
39.809 32.891 m 39.809 27.832 l S Q
40.426 31.91 m 39.812 33.582 l 39.199 31.91 l 39.562 32.176 40.059 32.176
 40.426 31.91 c h
40.426 31.91 m f*
0.0956693 w
1 j
q 0 -1 1 0 0 0 cm
-31.91 40.426 m -33.582 39.812 l -31.91 39.199 l -32.176 39.562 -32.176
 40.059 -31.91 40.426 c h
-31.91 40.426 m S Q
1 g
74.41 26.93 7.086 7.086 re f
0 g
0.751181 w
0 j
q 1 0 0 1 0 0 cm
74.41 26.93 7.086 7.086 re S Q
0.510236 w
q 1 0 0 1 0 0 cm
76.961 28.039 m 76.961 33.098 l S Q
76.34 29.02 m 76.957 27.348 l 77.57 29.02 l 77.207 28.754 76.711 28.754
 76.34 29.02 c h
76.34 29.02 m f*
0.0956693 w
1 j
q 0 1 -1 0 0 0 cm
29.02 -76.34 m 27.348 -76.957 l 29.02 -77.57 l 28.754 -77.207 28.754 -76.711
 29.02 -76.34 c h
29.02 -76.34 m S Q
0.510236 w
0 j
q 1 0 0 1 0 0 cm
78.785 32.891 m 78.785 27.832 l S Q
79.402 31.91 m 78.789 33.582 l 78.176 31.91 l 78.539 32.176 79.035 32.176
 79.402 31.91 c h
79.402 31.91 m f*
0.0956693 w
1 j
q 0 -1 1 0 0 0 cm
-31.91 79.402 m -33.582 78.789 l -31.91 78.176 l -32.176 78.539 -32.176
 79.035 -31.91 79.402 c h
-31.91 79.402 m S Q
0.471752 w
0 j
q 1 0 0 1 0 0 cm
69.348 30.496 m 60.234 30.473 l S Q
68.441 29.922 m 69.988 30.496 l 68.441 31.062 l 68.688 30.727 68.688 30.266
 68.441 29.922 c h
68.441 29.922 m f*
0.0884532 w
1 j
q -1 -0.00270613 0.00270613 -1 0 0 cm
-68.522 -29.736 m -70.07 -30.306 l -68.525 -30.877 l -68.77 -30.54 -68.769
 -30.08 -68.522 -29.736 c h
-68.522 -29.736 m S Q
19.086 40.531 m 19.867 39.77 l 21.023 38.75 21.469 38.348 21.469 37.609
 c 21.469 36.762 20.801 36.172 19.898 36.172 c 19.059 36.172 18.512 36.855
 18.512 37.512 c 18.512 37.926 18.883 37.926 18.906 37.926 c 19.031 37.926
 19.289 37.836 19.289 37.535 c 19.289 37.34 19.16 37.148 18.898 37.148 c
 18.84 37.148 18.824 37.148 18.805 37.156 c 18.973 36.672 19.371 36.398 
19.801 36.398 c 20.477 36.398 20.793 37.004 20.793 37.609 c 20.793 38.199
 20.422 38.785 20.016 39.246 c 18.598 40.828 l 18.512 40.91 18.512 40.926
 18.512 41.102 c 21.262 41.102 l 21.469 39.812 l 21.281 39.812 l 21.246 
40.035 21.195 40.363 21.121 40.473 c 21.066 40.531 20.578 40.531 20.418 
40.531 c h
19.086 40.531 m f*
23.391 39.664 m 23.41 39.668 l 23.426 39.672 l 23.473 39.68 l 23.496 39.688
 l 23.523 39.695 l 23.551 39.699 l 23.582 39.711 l 23.609 39.719 l 23.641
 39.73 l 23.676 39.742 l 23.707 39.754 l 23.738 39.77 l 23.773 39.781 l 
23.805 39.801 l 23.84 39.816 l 23.871 39.836 l 23.902 39.859 l 23.934 39.879
 l 23.961 39.906 l 23.988 39.93 l 24.016 39.961 l 24.043 39.988 l 24.066
 40.02 l 24.086 40.055 l 24.098 40.07 l 24.113 40.109 l 24.121 40.125 l 
24.129 40.148 l 24.145 40.188 l 24.148 40.207 l 24.16 40.277 l 24.16 40.297
 l 24.164 40.324 l 24.164 40.348 l 24.164 40.723 23.902 41.02 23.328 41.02
 c 22.703 41.02 22.438 40.598 22.297 39.969 c 22.273 39.875 22.266 39.844
 22.191 39.844 c 22.098 39.844 22.098 39.895 22.098 40.031 c 22.098 41.008
 l 22.098 41.133 22.098 41.184 22.176 41.184 c 22.215 41.184 22.223 41.176
 22.363 41.035 c 22.379 41.02 22.379 41.008 22.512 40.867 c 22.836 41.176
 23.172 41.184 23.328 41.184 c 24.176 41.184 24.516 40.688 24.516 40.156
 c 24.516 39.762 24.293 39.539 24.207 39.453 c 23.965 39.215 23.672 39.152
 23.359 39.098 c 22.949 39.016 22.453 38.918 22.453 38.488 c 22.453 38.23
 22.645 37.926 23.281 37.926 c 24.094 37.926 24.133 38.594 24.145 38.824
 c 24.156 38.891 24.219 38.891 24.238 38.891 c 24.332 38.891 24.332 38.852
 24.332 38.711 c 24.332 37.965 l 24.332 37.836 24.332 37.785 24.25 37.785
 c 24.215 37.785 24.199 37.785 24.102 37.875 c 24.082 37.906 24.008 37.969
 23.977 37.992 c 23.695 37.785 23.391 37.785 23.281 37.785 c 22.379 37.785
 22.098 38.281 22.098 38.695 c 22.098 38.953 22.215 39.164 22.414 39.328
 c 22.652 39.52 22.859 39.562 23.391 39.664 c h
23.391 39.664 m f*
43.555 40.684 m 44.34 39.922 l 45.496 38.902 45.941 38.504 45.941 37.762
 c 45.941 36.918 45.273 36.324 44.371 36.324 c 43.531 36.324 42.984 37.008
 42.984 37.664 c 42.984 38.082 43.355 38.082 43.375 38.082 c 43.504 38.082
 43.762 37.992 43.762 37.688 c 43.762 37.496 43.633 37.301 43.371 37.301
 c 43.312 37.301 43.297 37.301 43.277 37.309 c 43.445 36.828 43.844 36.555
 44.273 36.555 c 44.949 36.555 45.266 37.156 45.266 37.762 c 45.266 38.355
 44.895 38.938 44.488 39.398 c 43.07 40.984 l 42.984 41.062 42.984 41.078
 42.984 41.258 c 45.73 41.258 l 45.941 39.969 l 45.754 39.969 l 45.719 40.191
 45.668 40.516 45.594 40.629 c 45.539 40.684 45.051 40.684 44.891 40.684
 c h
43.555 40.684 m f*
47.598 38.473 m 47.598 37.984 l 46.531 38.066 l 46.531 38.297 l 47.059 
38.297 47.109 38.34 47.109 38.664 c 47.109 42.129 l 47.109 42.465 47.027
 42.465 46.531 42.465 c 46.531 42.691 l 46.785 42.684 47.168 42.672 47.359
 42.672 c 47.559 42.672 47.938 42.684 48.199 42.691 c 48.199 42.465 l 47.703
 42.465 47.621 42.465 47.621 42.129 c 47.621 40.82 l 47.727 40.723 l 47.621
 40.566 47.621 40.559 47.621 40.414 c 47.621 38.758 l 47.832 38.383 48.199
 38.168 48.574 38.168 c 49.117 38.168 49.566 38.82 49.566 39.656 c 49.566
 40.555 49.047 41.176 48.5 41.176 c 48.207 41.176 47.926 41.027 47.727 40.723
 c 47.621 40.82 l 47.656 40.938 47.969 41.336 48.531 41.336 c 49.414 41.336
 50.18 40.613 50.18 39.656 c 50.18 38.715 49.465 37.984 48.633 37.984 c 
48.055 37.984 47.746 38.309 47.598 38.473 c h
47.598 38.473 m f*
75.68 40.488 m 76.465 39.727 l 77.617 38.707 78.062 38.309 78.062 37.566
 c 78.062 36.723 77.398 36.129 76.496 36.129 c 75.656 36.129 75.109 36.812
 75.109 37.469 c 75.109 37.887 75.48 37.887 75.5 37.887 c 75.629 37.887 
75.887 37.797 75.887 37.492 c 75.887 37.301 75.754 37.105 75.496 37.105 
c 75.438 37.105 75.422 37.105 75.398 37.113 c 75.57 36.633 75.969 36.359
 76.398 36.359 c 77.07 36.359 77.391 36.961 77.391 37.566 c 77.391 38.16
 77.02 38.742 76.613 39.203 c 75.191 40.789 l 75.109 40.867 75.109 40.883
 75.109 41.062 c 77.855 41.062 l 78.062 39.773 l 77.879 39.773 l 77.84 39.996
 77.789 40.32 77.715 40.434 c 77.664 40.488 77.176 40.488 77.012 40.488 
c h
75.68 40.488 m f*
79.988 39.625 m 80.004 39.625 l 80.023 39.629 l 80.047 39.633 l 80.066 
39.641 l 80.094 39.645 l 80.176 39.668 l 80.207 39.676 l 80.27 39.699 l 
80.305 39.711 l 80.336 39.727 l 80.371 39.742 l 80.434 39.773 l 80.465 39.797
 l 80.5 39.816 l 80.527 39.84 l 80.559 39.863 l 80.613 39.918 l 80.684 40.012
 l 80.691 40.027 l 80.703 40.047 l 80.727 40.105 l 80.73 40.125 l 80.738
 40.145 l 80.742 40.164 l 80.75 40.188 l 80.754 40.211 l 80.754 40.234 l
 80.758 40.258 l 80.758 40.305 l 80.758 40.684 80.5 40.98 79.922 40.98 c
 79.301 40.98 79.035 40.559 78.891 39.93 c 78.871 39.832 78.863 39.801 78.789
 39.801 c 78.691 39.801 78.691 39.855 78.691 39.988 c 78.691 40.965 l 78.691
 41.09 78.691 41.141 78.773 41.141 c 78.809 41.141 78.816 41.137 78.957 
40.992 c 78.973 40.98 78.973 40.965 79.109 40.824 c 79.434 41.137 79.766
 41.141 79.922 41.141 c 80.773 41.141 81.113 40.645 81.113 40.113 c 81.113
 39.723 80.891 39.5 80.805 39.41 c 80.559 39.172 80.27 39.113 79.957 39.055
 c 79.543 38.973 79.047 38.875 79.047 38.445 c 79.047 38.188 79.238 37.887
 79.879 37.887 c 80.691 37.887 80.73 38.551 80.742 38.781 c 80.754 38.848
 80.816 38.848 80.832 38.848 c 80.93 38.848 80.93 38.812 80.93 38.668 c 
80.93 37.922 l 80.93 37.797 80.93 37.746 80.848 37.746 c 80.812 37.746 80.797
 37.746 80.699 37.832 c 80.68 37.863 80.605 37.93 80.574 37.953 c 80.293
 37.746 79.988 37.746 79.879 37.746 c 78.973 37.746 78.691 38.238 78.691
 38.656 c 78.691 38.914 78.809 39.121 79.012 39.285 c 79.246 39.477 79.457
 39.52 79.988 39.625 c h
79.988 39.625 m f*
100.152 40.645 m 100.938 39.883 l 102.09 38.859 102.535 38.461 102.535 
37.719 c 102.535 36.875 101.871 36.281 100.969 36.281 c 100.129 36.281 99.582
 36.965 99.582 37.625 c 99.582 38.039 99.953 38.039 99.973 38.039 c 100.102
 38.039 100.359 37.949 100.359 37.645 c 100.359 37.453 100.227 37.258 99.969
 37.258 c 99.91 37.258 99.895 37.258 99.871 37.266 c 100.043 36.785 100.441
 36.512 100.871 36.512 c 101.543 36.512 101.863 37.113 101.863 37.719 c 
101.863 38.312 101.492 38.898 101.086 39.355 c 99.664 40.941 l 99.582 41.02
 99.582 41.035 99.582 41.215 c 102.328 41.215 l 102.535 39.926 l 102.352
 39.926 l 102.312 40.148 102.262 40.473 102.188 40.586 c 102.137 40.645 
101.648 40.645 101.484 40.645 c h
100.152 40.645 m f*
104.195 38.43 m 104.195 37.941 l 103.129 38.023 l 103.129 38.254 l 103.652
 38.254 103.707 38.297 103.707 38.621 c 103.707 42.09 l 103.707 42.422 103.625
 42.422 103.129 42.422 c 103.129 42.652 l 103.379 42.641 103.766 42.629 
103.957 42.629 c 104.156 42.629 104.535 42.641 104.797 42.652 c 104.797 
42.422 l 104.297 42.422 104.215 42.422 104.215 42.09 c 104.215 40.777 l 
104.32 40.68 l 104.215 40.523 104.215 40.516 104.215 40.371 c 104.215 38.719
 l 104.43 38.34 104.797 38.125 105.172 38.125 c 105.711 38.125 106.164 38.777
 106.164 39.613 c 106.164 40.512 105.645 41.133 105.098 41.133 c 104.801
 41.133 104.52 40.984 104.32 40.68 c 104.215 40.777 l 104.254 40.895 104.566
 41.297 105.129 41.297 c 106.008 41.297 106.777 40.57 106.777 39.613 c 106.777
 38.676 106.059 37.941 105.23 37.941 c 104.652 37.941 104.344 38.266 104.195
 38.43 c h
104.195 38.43 m f*
1 g
42.52 26.93 7.086 7.086 re f
0 g
0.751181 w
0 j
q 1 0 0 1 0 0 cm
42.52 26.93 7.086 7.086 re S Q
0.510236 w
q 1 0 0 1 0 0 cm
45.07 28.039 m 45.07 33.098 l S Q
44.453 29.02 m 45.066 27.348 l 45.684 29.02 l 45.32 28.754 44.82 28.754
 44.453 29.02 c h
44.453 29.02 m f*
0.0956693 w
1 j
q 0 1 -1 0 0 0 cm
29.02 -44.453 m 27.348 -45.066 l 29.02 -45.684 l 28.754 -45.32 28.754 -44.82
 29.02 -44.453 c h
29.02 -44.453 m S Q
0.510236 w
0 j
q 1 0 0 1 0 0 cm
46.898 32.891 m 46.898 27.832 l S Q
47.516 31.91 m 46.898 33.582 l 46.285 31.91 l 46.648 32.176 47.145 32.176
 47.516 31.91 c h
47.516 31.91 m f*
0.0956693 w
1 j
q 0 -1 1 0 0 0 cm
-31.91 47.516 m -33.582 46.898 l -31.91 46.285 l -32.176 46.648 -32.176
 47.145 -31.91 47.516 c h
-31.91 47.516 m S Q
1 g
92.125 26.93 7.086 7.086 re f
0 g
0.751181 w
0 j
q 1 0 0 1 0 0 cm
92.125 26.93 7.086 7.086 re S Q
1 0 0 rg
0.510236 w
q 1 0 0 1 0 0 cm
94.676 28.039 m 94.676 33.098 l S Q
94.059 29.02 m 94.672 27.348 l 95.289 29.02 l 94.926 28.754 94.43 28.754
 94.059 29.02 c h
94.059 29.02 m f*
0.0956693 w
1 j
q 0 1 -1 0 0 0 cm
29.02 -94.059 m 27.348 -94.672 l 29.02 -95.289 l 28.754 -94.926 28.754 
-94.43 29.02 -94.059 c h
29.02 -94.059 m S Q
0.510236 w
0 j
q 1 0 0 1 0 0 cm
96.504 32.891 m 96.504 27.832 l S Q
97.121 31.91 m 96.504 33.582 l 95.891 31.91 l 96.254 32.176 96.75 32.176
 97.121 31.91 c h
97.121 31.91 m f*
0.0956693 w
1 j
q 0 -1 1 0 0 0 cm
-31.91 97.121 m -33.582 96.504 l -31.91 95.891 l -32.176 96.254 -32.176
 96.75 -31.91 97.121 c h
-31.91 97.121 m S Q
1 g
99.211 26.93 7.09 7.086 re f
0 g
0.751181 w
0 j
q 1 0 0 1 0 0 cm
99.211 26.93 7.09 7.086 re S Q
1 0 0 rg
0.510236 w
q 1 0 0 1 0 0 cm
101.762 28.039 m 101.762 33.098 l S Q
101.145 29.02 m 101.762 27.348 l 102.375 29.02 l 102.012 28.754 101.516
 28.754 101.145 29.02 c h
101.145 29.02 m f*
0.0956693 w
1 j
q 0 1 -1 0 0 0 cm
29.02 -101.145 m 27.348 -101.762 l 29.02 -102.375 l 28.754 -102.012 28.754
 -101.516 29.02 -101.145 c h
29.02 -101.145 m S Q
0.510236 w
0 j
q 1 0 0 1 0 0 cm
103.59 32.891 m 103.59 27.832 l S Q
104.207 31.91 m 103.594 33.582 l 102.977 31.91 l 103.34 32.176 103.836 
32.176 104.207 31.91 c h
104.207 31.91 m f*
0.0956693 w
1 j
q 0 -1 1 0 0 0 cm
-31.91 104.207 m -33.582 103.594 l -31.91 102.977 l -32.176 103.34 -32.176
 103.836 -31.91 104.207 c h
-31.91 104.207 m S Q
1 g
106.301 26.93 7.086 7.086 re f
0 g
0.751181 w
0 j
q 1 0 0 1 0 0 cm
106.301 26.93 7.086 7.086 re S Q
1 0 0 rg
0.510236 w
q 1 0 0 1 0 0 cm
108.848 28.039 m 108.848 33.098 l S Q
108.23 29.02 m 108.848 27.348 l 109.461 29.02 l 109.098 28.754 108.602 
28.754 108.23 29.02 c h
108.23 29.02 m f*
0.0956693 w
1 j
q 0 1 -1 0 0 0 cm
29.02 -108.23 m 27.348 -108.848 l 29.02 -109.461 l 28.754 -109.098 28.754
 -108.602 29.02 -108.23 c h
29.02 -108.23 m S Q
0.510236 w
0 j
q 1 0 0 1 0 0 cm
110.676 32.891 m 110.676 27.832 l S Q
111.293 31.91 m 110.68 33.582 l 110.062 31.91 l 110.426 32.176 110.922 
32.176 111.293 31.91 c h
111.293 31.91 m f*
0.0956693 w
1 j
q 0 -1 1 0 0 0 cm
-31.91 111.293 m -33.582 110.68 l -31.91 110.062 l -32.176 110.426 -32.176
 110.922 -31.91 111.293 c h
-31.91 111.293 m S Q
0 g
61.992 27.805 m 64.039 27.805 l 64.141 27.805 64.277 27.805 64.277 27.66
 c 64.277 27.52 64.141 27.52 64.039 27.52 c 61.992 27.52 l 61.992 25.539
 l 61.992 25.441 61.992 25.305 61.844 25.305 c 61.699 25.305 61.699 25.441
 61.699 25.539 c 61.699 27.52 l 59.648 27.52 l 59.543 27.52 59.406 27.52
 59.406 27.66 c 59.406 27.805 59.543 27.805 59.648 27.805 c 61.699 27.805
 l 61.699 29.785 l 61.699 29.883 61.699 30.02 61.844 30.02 c 61.992 30.02
 61.992 29.883 61.992 29.785 c h
61.992 27.805 m f*
65.512 27.797 m 65.516 27.645 l 65.562 26.594 66.176 26.418 66.426 26.418
 c 67.184 26.418 67.258 27.371 67.258 27.645 c 65.516 27.645 l 65.512 27.797
 l 67.555 27.797 l 67.719 27.797 67.738 27.797 67.738 27.645 c 67.738 26.949
 67.344 26.262 66.426 26.262 c 65.578 26.262 64.902 26.988 64.902 27.875
 c 64.902 28.82 65.672 29.508 66.516 29.508 c 67.41 29.508 67.738 28.723
 67.738 28.59 c 67.738 28.52 67.68 28.504 67.645 28.504 c 67.578 28.504 
67.562 28.547 67.547 28.602 c 67.293 29.332 66.633 29.332 66.559 29.332 
c 66.191 29.332 65.898 29.117 65.73 28.859 c 65.512 28.52 65.512 28.051 
65.512 27.797 c h
65.512 27.797 m f*
71.762 25.754 m 71.836 25.754 l 71.844 25.75 l 71.863 25.75 l 71.867 25.746
 l 71.879 25.746 l 71.895 25.738 l 71.902 25.738 l 71.91 25.734 l 71.914
 25.73 l 71.922 25.727 l 71.949 25.699 l 71.949 25.695 l 71.953 25.691 l
 71.953 25.688 l 71.957 25.684 l 71.957 25.676 l 71.961 25.672 l 71.961 
25.656 l 71.965 25.652 l 71.965 25.637 l 71.965 25.512 71.848 25.512 71.762
 25.512 c 68.707 25.512 l 68.621 25.512 68.5 25.512 68.5 25.629 c 68.5 25.754
 68.617 25.754 68.707 25.754 c h
71.762 25.754 m f*
Q Q
showpage
%%Trailer
end
%%EOF
